<?xml version="1.0" encoding="UTF-8"?>
<svg width="63px" height="58px" viewBox="0 0 63 58" version="1.1" xmlns="http://www.w3.org/2000/svg" xmlns:xlink="http://www.w3.org/1999/xlink">
    <!-- Generator: Sketch 50.2 (55047) - http://www.bohemiancoding.com/sketch -->
    <title>Additional subscribers</title>
    <desc>Created with Sketch.</desc>
    <defs></defs>
    <g id="View-NA-for-Individual" stroke="none" stroke-width="1" fill="none" fill-rule="evenodd">
        <g id="View-NA-for-Individual-2" transform="translate(-515.000000, -276.000000)">
            <g id="Additional-subscribers" transform="translate(515.000000, 277.000000)">
                <g>
                    <polygon id="Stroke-1" stroke="#3B3E41" stroke-width="2" points="16.734375 55.4453741 42.328125 55.4453741 42.328125 17.1177879 16.734375 17.1177879"></polygon>
                    <polygon id="Fill-3" fill="#E9EAEB" points="19.6875 17.1177879 39.375 17.1177879 39.375 12.2039948 19.6875 12.2039948"></polygon>
                    <polygon id="Stroke-4" stroke="#3B3E41" stroke-width="2" points="19.6875 17.1177879 39.375 17.1177879 39.375 12.2039948 19.6875 12.2039948"></polygon>
                    <polygon id="Fill-5" fill="#E9EAEB" points="27.5625 55.4453741 33.46875 55.4453741 33.46875 47.5833052 27.5625 47.5833052"></polygon>
                    <polygon id="Stroke-6" stroke="#3B3E41" stroke-width="2" points="27.5625 55.4453741 33.46875 55.4453741 33.46875 47.5833052 27.5625 47.5833052"></polygon>
                    <polyline id="Stroke-8" stroke="#3B3E41" stroke-width="2" points="21.65625 30.8764086 21.65625 25.9626155 26.578125 25.9626155 26.578125 30.8764086"></polyline>
                    <polyline id="Stroke-9" stroke="#3B3E41" stroke-width="2" fill="#D8D8D8" points="21.65625 38.7384776 21.65625 33.8246845 26.578125 33.8246845 26.578125 38.7384776"></polyline>
                    <polygon id="Stroke-10" stroke="#3B3E41" stroke-width="2" fill="#D8D8D8" points="6.890625 55.4453741 16.734375 55.4453741 16.734375 30.8764086 6.890625 30.8764086"></polygon>
                    <polygon id="Fill-12" fill="#E9EAEB" points="9.84375 30.8764086 16.734375 30.8764086 16.734375 25.9626155 9.84375 25.9626155"></polygon>
                    <polygon id="Stroke-13" stroke="#3B3E41" stroke-width="2" fill="#D8D8D8" points="9.84375 30.8764086 16.734375 30.8764086 16.734375 25.9626155 9.84375 25.9626155"></polygon>
                    <path d="M42.4001812,23.9970983 C36.4594781,23.9970983 31.6439156,28.8047534 31.6439156,34.7357017 C31.6439156,44.0040983 40.8173062,45.2571155 41.5870875,54.6788224 C41.622525,55.1082879 41.969025,55.4453741 42.4001812,55.4453741 C42.8313375,55.4453741 43.1778375,55.1082879 43.213275,54.6788224 C43.9830562,45.2571155 53.1564469,44.0040983 53.1564469,34.7357017 C53.1564469,28.8047534 48.3408844,23.9970983 42.4001812,23.9970983" id="Fill-14" fill="#6DC653"></path>
                    <path d="M42.4001812,23.9970983 C36.4594781,23.9970983 31.6439156,28.8047534 31.6439156,34.7357017 C31.6439156,44.0040983 40.8173062,45.2571155 41.5870875,54.6788224 C41.622525,55.1082879 41.969025,55.4453741 42.4001812,55.4453741 C42.8313375,55.4453741 43.1778375,55.1082879 43.213275,54.6788224 C43.9830562,45.2571155 53.1564469,44.0040983 53.1564469,34.7357017 C53.1564469,28.8047534 48.3408844,23.9970983 42.4001812,23.9970983 Z" id="Stroke-16" stroke="#3B3E41" stroke-width="2"></path>
                    <path d="M46.265625,34.8074431 C46.265625,36.9783569 44.5026094,38.7384776 42.328125,38.7384776 C40.1536406,38.7384776 38.390625,36.9783569 38.390625,34.8074431 C38.390625,32.6365293 40.1536406,30.8764086 42.328125,30.8764086 C44.5026094,30.8764086 46.265625,32.6365293 46.265625,34.8074431" id="Fill-18" fill="#FFFFFF"></path>
                    <path d="M46.265625,34.8074431 C46.265625,36.9783569 44.5026094,38.7384776 42.328125,38.7384776 C40.1536406,38.7384776 38.390625,36.9783569 38.390625,34.8074431 C38.390625,32.6365293 40.1536406,30.8764086 42.328125,30.8764086 C44.5026094,30.8764086 46.265625,32.6365293 46.265625,34.8074431 Z" id="Stroke-20" stroke="#3B3E41" stroke-width="2"></path>
                    <path d="M3.9375,55.4453741 L53.15625,55.4453741" id="Stroke-22" stroke="#3B3E41" stroke-width="2"></path>
                    <path d="M35.4375,5.32468448 L28.6443281,5.32468448 C28.1403281,4.34192586 26.956125,3.32870172 25.5740625,3.32870172 C25.1360156,3.32870172 24.7176563,3.43287414 24.3347344,3.58618448 C23.5649531,1.53713276 21.5912812,9.82758623e-05 19.270125,9.82758623e-05 C16.2835312,9.82758623e-05 13.8619688,3.35916724 13.8570469,5.32468448 L5.90625,5.32468448" id="Stroke-24" stroke="#BCC0C4" stroke-width="2"></path>
                    <path d="M10.828125,13.1867534 L3.9375,13.1867534" id="Stroke-26" stroke="#BCC0C4" stroke-width="2"></path>
                    <path d="M63,10.2384776 L60.0724687,10.2384776 C59.3912812,8.27296034 57.9796875,7.78354655 56.2855781,7.98796034 C55.5472969,6.71823621 54.1859062,5.93596034 52.6099219,5.93596034 C50.2671094,5.93596034 48.36825,7.29020172 48.3485625,10.2384776 L44.296875,10.2384776" id="Stroke-28" stroke="#BCC0C4" stroke-width="2"></path>
                    <path d="M12.796875,13.1867534 L14.765625,13.1867534" id="Stroke-30" stroke="#BCC0C4" stroke-width="2"></path>
                    <path d="M37.40625,5.32468448 L39.375,5.32468448" id="Stroke-32" stroke="#BCC0C4" stroke-width="2"></path>
                    <path d="M41.34375,5.32468448 L43.3125,5.32468448" id="Stroke-34" stroke="#BCC0C4" stroke-width="2"></path>
                    <path d="M1.96875,55.4453741 L0,55.4453741" id="Stroke-36" stroke="#3B3E41" stroke-width="2"></path>
                    <path d="M55.125,55.4453741 L59.0625,55.4453741" id="Stroke-38" stroke="#3B3E41" stroke-width="2"></path>
                    <path d="M61.03125,55.4453741 L63,55.4453741" id="Stroke-40" stroke="#3B3E41" stroke-width="2"></path>
                </g>
            </g>
        </g>
    </g>
</svg>