<?xml version="1.0" encoding="UTF-8"?>
<svg width="14px" height="8px" viewBox="0 0 14 8" version="1.1" xmlns="http://www.w3.org/2000/svg" xmlns:xlink="http://www.w3.org/1999/xlink">
    <!-- Generator: Sketch 50.2 (55047) - http://www.bohemiancoding.com/sketch -->
    <title>Arrow Gery Down</title>
    <desc>Created with Sketch.</desc>
    <defs></defs>
    <g id="Account-settings,-Individual-Users" stroke="none" stroke-width="1" fill="none" fill-rule="evenodd">
        <g id="Account-settings,Individual,-persnoal-info-2" transform="translate(-136.000000, -31.000000)">
            <g id="Group-4">
                <g id="Arrow-Gery-Down" transform="translate(131.000000, 23.000000)">
                    <rect id="Rectangle-4" x="0" y="0" width="24" height="24"></rect>
                    <path d="M9.77751338,11.9996856 L14.9054134,6.58029025 C15.0315289,6.44700582 15.0315289,6.23324776 14.9054134,6.09996333 C14.779298,5.96667889 14.5770375,5.96667889 14.4509221,6.09996333 L9.09458656,11.7607796 C8.96847115,11.894064 8.96847115,12.1078221 9.09458656,12.2411065 L14.4509221,17.899408 C14.51279,17.9647928 14.5960738,18 14.676978,18 C14.7578822,18 14.841166,17.9673076 14.9030339,17.899408 C15.0291493,17.7661235 15.0291493,17.5523655 14.9030339,17.419081 L9.77751338,11.9996856 Z" id="Shape" stroke="#3B3E41" fill="#3B3E41" fill-rule="nonzero" transform="translate(12.000000, 12.000000) rotate(-90.000000) translate(-12.000000, -12.000000) "></path>
                </g>
            </g>
        </g>
    </g>
</svg>