<?xml version="1.0" encoding="UTF-8"?>
<svg width="15px" height="24px" viewBox="0 0 15 24" version="1.1" xmlns="http://www.w3.org/2000/svg" xmlns:xlink="http://www.w3.org/1999/xlink">
    <!-- Generator: Sketch 50.2 (55047) - http://www.bohemiancoding.com/sketch -->
    <title>Attach</title>
    <desc>Created with Sketch.</desc>
    <defs></defs>
    <g id="Customer-Care" stroke="none" stroke-width="1" fill="none" fill-rule="evenodd">
        <g id="Customer-care-Module9" transform="translate(-378.000000, -556.000000)" fill="#97A4B1" fill-rule="nonzero">
            <g id="Attach" transform="translate(378.000000, 556.000000)">
                <path d="M7.50020486,0 C3.36456256,0 0,3.25630731 0,7.25848823 L0,18.6539777 C0,21.6021809 2.4783535,24 5.52456912,24 C8.56668761,24 11.0417634,21.6081289 11.0483188,18.6654771 C11.0483188,18.6611152 11.049548,18.6575465 11.049548,18.6539777 L11.049548,7.25848823 C11.049548,5.36465923 9.45740351,3.82334572 7.50020486,3.82334572 C5.54341591,3.82334572 3.95086176,5.36465923 3.95086176,7.25848823 L3.95086176,15.4036183 C3.95086176,15.9512268 4.40933053,16.3949442 4.97514408,16.3949442 C5.54095764,16.3949442 5.9994264,15.9512268 5.9994264,15.4036183 L5.9994264,7.25848823 C5.9994264,6.45710037 6.67258474,5.80599752 7.50020486,5.80599752 C8.32782497,5.80599752 9.00098331,6.4574969 9.00098331,7.25848823 L9.00098331,18.6484263 C9.00098331,18.6504089 9.0005736,18.6523916 9.0005736,18.6543742 C9.0005736,20.5089467 7.44120619,22.0177447 5.52456912,22.0177447 C3.60793204,22.0177447 2.04856464,20.5085502 2.04856464,18.6543742 L2.04856464,7.25848823 C2.04856464,4.34914498 4.49414111,1.9826518 7.50020486,1.9826518 C10.5058589,1.9826518 12.9514354,4.34914498 12.9514354,7.25848823 L12.9514354,15.4036183 C12.9514354,15.9512268 13.4099041,16.3949442 13.9757177,16.3949442 C14.5415312,16.3949442 15,15.9512268 15,15.4036183 L15,7.25848823 C15,3.25630731 11.6358471,0 7.50020486,0 Z" id="Shape"></path>
            </g>
        </g>
    </g>
</svg>