<?xml version="1.0" encoding="UTF-8"?>
<svg width="59px" height="52px" viewBox="0 0 59 52" version="1.1" xmlns="http://www.w3.org/2000/svg" xmlns:xlink="http://www.w3.org/1999/xlink">
    <!-- Generator: Sketch 50.2 (55047) - http://www.bohemiancoding.com/sketch -->
    <title>Attention</title>
    <desc>Created with Sketch.</desc>
    <defs></defs>
    <g id="Login-Module,-Forget-password-case" stroke="none" stroke-width="1" fill="none" fill-rule="evenodd">
        <g id="Login-Module,-Forget-password-case-7" transform="translate(-692.000000, -295.000000)">
            <g id="Group-4" transform="translate(443.000000, 255.000000)">
                <g id="Attention" transform="translate(250.000000, 40.000000)">
                    <path d="M50.9092727,44.2521825 C50.3465455,45.0321825 49.7410909,45.7902877 49.0910909,46.5237614" id="Stroke-1" stroke="#BCC0C4" stroke-width="2"></path>
                    <path d="M53.6365455,39.6089474 C53.2074545,40.527614 52.7265455,41.4280351 52.1956364,42.3065614" id="Stroke-3" stroke="#BCC0C4" stroke-width="2"></path>
                    <path d="M55.328,35.0086807 C55.0743636,35.9328211 54.7752727,36.846014 54.4289091,37.7455228" id="Stroke-5" stroke="#BCC0C4" stroke-width="2"></path>
                    <path d="M49.5007273,8.55080702 C55.4261818,15.5370526 57.5152727,24.6790175 55.7652727,33.1842105" id="Stroke-7" stroke="#BCC0C4" stroke-width="2"></path>
                    <path d="M28.0204472,9 C17.5325544,9 9,17.5624932 9,28.0871856 C9,38.6120334 17.5325544,47.1745267 28.0204472,47.1745267 C38.50834,47.1745267 47.0408944,38.6120334 47.0408944,28.0871856 C47.0408944,17.5624932 38.50834,9 28.0204472,9" id="Fill-1" stroke="#3B3E41" stroke-width="2" fill="#F7981C"></path>
                    <g id="Group-69" transform="translate(25.000000, 15.000000)" fill="#FFFFFF" fill-rule="nonzero">
                        <path d="M3.5,19 L1.9,19 C0.7,19 0,19.6 0,20.9 L0,22.3 C0,23.5 0.6,24.2 1.9,24.2 L3.5,24.2 C4.7,24.2 5.4,23.6 5.4,22.3 L5.4,20.9 C5.3,19.7 4.7,19 3.5,19 Z" id="Shape"></path>
                        <path d="M0.00944956067,1.9 L0.409449561,15 C0.409449561,16.2 1.10944956,16.8 2.30944956,16.8 L3.60944956,16.8 C4.80944956,16.8 5.50944956,16.2 5.50944956,15 L5.90944956,1.9 C5.90944956,0.7 5.30944956,0 4.10944956,0 L1.80944956,0 C0.609449561,-7.10542736e-15 -0.0905504393,0.7 0.00944956067,1.9 Z" id="Shape"></path>
                    </g>
                    <path d="M6.11781818,9.46418246 C6.83327273,8.54734035 7.61145455,7.66425263 8.45327273,6.82039298" id="Stroke-9" stroke="#BCC0C4" stroke-width="2"></path>
                    <path d="M3.20036364,14.0265895 C3.68036364,13.0915018 4.21490909,12.1783088 4.804,11.2897474" id="Stroke-11" stroke="#BCC0C4" stroke-width="2"></path>
                    <path d="M1.33027273,18.5878105 C1.62027273,17.6627579 1.95754545,16.7486526 2.34209091,15.8509684" id="Stroke-13" stroke="#BCC0C4" stroke-width="2"></path>
                    <path d="M6.047,45.0436772 C0.527909091,37.9160281 -1.213,28.7968702 0.823363636,20.4120982" id="Stroke-15" stroke="#BCC0C4" stroke-width="2"></path>
                    <path d="M43.6363636,0 L43.6363636,5.47368421" id="Stroke-35" stroke="#BCC0C4" stroke-width="2"></path>
                    <path d="M46.3636364,2.73684211 L40.9090909,2.73684211" id="Stroke-37" stroke="#BCC0C4" stroke-width="2"></path>
                    <path d="M10,46.5263158 L10,52" id="Stroke-39" stroke="#BCC0C4" stroke-width="2"></path>
                    <path d="M12.7272727,49.2631579 L7.27272727,49.2631579" id="Stroke-41" stroke="#BCC0C4" stroke-width="2"></path>
                </g>
            </g>
        </g>
    </g>
</svg>