<?xml version="1.0" encoding="UTF-8"?>
<svg width="23px" height="23px" viewBox="0 0 23 23" version="1.1" xmlns="http://www.w3.org/2000/svg" xmlns:xlink="http://www.w3.org/1999/xlink">
    <!-- Generator: Sketch 50.2 (55047) - http://www.bohemiancoding.com/sketch -->
    <title>Building</title>
    <desc>Created with Sketch.</desc>
    <defs></defs>
    <g id="Our-Locations" stroke="none" stroke-width="1" fill="none" fill-rule="evenodd">
        <g id="Our-Locations-03" transform="translate(-1177.000000, -575.000000)" fill="#28AC58">
            <g id="Building" transform="translate(1177.000000, 575.000000)">
                <g id="Shape">
                    <path d="M22.6166864,20.7000685 L21.4667001,20.7000685 L21.4667001,0.383314304 C21.4667001,0.153316587 21.3133839,0 21.0833866,0 L1.91665905,0 C1.68666179,0 1.53334551,0.153316587 1.53334551,0.383314304 L1.53334551,20.7000228 L0.383313543,20.7000228 C0.153316283,20.7000228 0,20.8533394 0,21.0833371 L0,22.6166857 C0,22.8466834 0.153316283,23 0.383313543,23 L22.6166864,23 C22.8466837,23 23,22.8466834 23,22.6166857 L23,21.0833371 C23.0000457,20.8533851 22.8466837,20.7000685 22.6166864,20.7000685 Z M2.30001827,0.766674278 L20.7000274,0.766674278 L20.7000274,20.7000685 L14.9500046,20.7000685 L14.9500046,16.4833828 C14.9500046,16.2533851 14.7966883,16.1000685 14.566691,16.1000685 L11.5,16.1000685 L8.43330897,16.1000685 C8.20331171,16.1000685 8.04999543,16.2533851 8.04999543,16.4833828 L8.04999543,20.7000685 L2.30001827,20.7000685 L2.30001827,0.766674278 Z M8.81666819,20.7000685 L8.81666819,16.8667428 L11.1166865,16.8667428 L11.1166865,20.7000685 L8.81666819,20.7000685 Z M11.8833592,16.8666971 L14.1833775,16.8666971 L14.1833775,20.7000228 L11.8833592,20.7000228 L11.8833592,16.8666971 Z M22.2334186,22.2334171 L0.766672756,22.2334171 L0.766672756,21.4667428 L1.91665905,21.4667428 L8.43335464,21.4667428 L11.5000457,21.4667428 L14.5667367,21.4667428 L21.0834323,21.4667428 L22.2334186,21.4667428 L22.2334186,22.2334171 Z" fill-rule="nonzero"></path>
                    <path d="M7.59997141,2 L4.39998094,2 C4.15998284,2 4,2.14998436 4,2.37498325 L4,4.62501675 C4,4.85001564 4.15998284,5 4.39998094,5 L7.60001906,5 C7.84001716,5 8,4.85001564 8,4.62501675 L8,2.37502792 C8,2.15002904 7.8399695,2 7.59997141,2 Z M7.19999047,4.25003351 L4.79996187,4.25003351 L4.79996187,2.75001117 L7.19999047,2.75001117 L7.19999047,4.25003351 Z" fill-rule="nonzero"></path>
                    <path d="M7.59997141,6 L4.39998094,6 C4.15998284,6 4,6.14998436 4,6.37498325 L4,8.62501675 C4,8.85001564 4.15998284,9 4.39998094,9 L7.60001906,9 C7.84001716,9 8,8.85001564 8,8.62501675 L8,6.37498325 C8,6.14998436 7.8399695,6 7.59997141,6 Z M7.19999047,8.25003351 L4.79996187,8.25003351 L4.79996187,6.75001117 L7.19999047,6.75001117 L7.19999047,8.25003351 Z" fill-rule="nonzero"></path>
                    <path d="M10.3999809,9 L13.6000191,9 C13.8400172,9 14,8.85001564 14,8.62501675 L14,6.37498325 C14,6.14998436 13.8400172,6 13.6000191,6 L10.3999809,6 C10.1599828,6 10,6.14998436 10,6.37498325 L10,8.62501675 C10,8.84997096 10.1599828,9 10.3999809,9 Z M10.8000095,6.74996649 L13.2000381,6.74996649 L13.2000381,8.24998883 L10.8000095,8.24998883 L10.8000095,6.74996649 Z" fill-rule="nonzero"></path>
                    <path d="M16.3999809,9 L19.6000191,9 C19.8400172,9 20,8.85001564 20,8.62501675 L20,6.37498325 C20,6.14998436 19.8400172,6 19.6000191,6 L16.3999809,6 C16.1599828,6 16,6.14998436 16,6.37498325 L16,8.62501675 C16,8.84997096 16.1599828,9 16.3999809,9 Z M16.8000095,6.74996649 L19.2000381,6.74996649 L19.2000381,8.24998883 L16.8000095,8.24998883 L16.8000095,6.74996649 Z" fill-rule="nonzero"></path>
                    <path d="M10.3999809,13 L13.6000191,13 C13.8400172,13 14,12.8500156 14,12.6250168 L14,10.3749832 C14,10.1499844 13.8400172,10 13.6000191,10 L10.3999809,10 C10.1599828,10 10,10.1499844 10,10.3749832 L10,12.6250168 C10,12.849971 10.1599828,13 10.3999809,13 Z M10.8000095,10.7499665 L13.2000381,10.7499665 L13.2000381,12.2499888 L10.8000095,12.2499888 L10.8000095,10.7499665 Z" fill-rule="nonzero"></path>
                    <path d="M16.3999809,13 L19.6000191,13 C19.8400172,13 20,12.8500156 20,12.6250168 L20,10.3749832 C20,10.1499844 19.8400172,10 19.6000191,10 L16.3999809,10 C16.1599828,10 16,10.1499844 16,10.3749832 L16,12.6250168 C16,12.849971 16.1599828,13 16.3999809,13 Z M16.8000095,10.7499665 L19.2000381,10.7499665 L19.2000381,12.2499888 L16.8000095,12.2499888 L16.8000095,10.7499665 Z" fill-rule="nonzero"></path>
                    <path d="M7.59997141,10 L4.39998094,10 C4.15998284,10 4,10.1499844 4,10.3749832 L4,12.6250168 C4,12.8500156 4.15998284,13 4.39998094,13 L7.60001906,13 C7.84001716,13 8,12.8500156 8,12.6250168 L8,10.3749832 C8,10.1499844 7.8399695,10 7.59997141,10 Z M7.19999047,12.2500335 L4.79996187,12.2500335 L4.79996187,10.7500112 L7.19999047,10.7500112 L7.19999047,12.2500335 Z" fill-rule="nonzero"></path>
                    <path d="M10.3999809,5 L13.6000191,5 C13.8400172,5 14,4.85001564 14,4.62501675 L14,2.37498325 C14,2.14998436 13.8400172,2 13.6000191,2 L10.3999809,2 C10.1599828,2 10,2.14998436 10,2.37498325 L10,4.62501675 C10,4.84997096 10.1599828,5 10.3999809,5 Z M10.8000095,2.74996649 L13.2000381,2.74996649 L13.2000381,4.24998883 L10.8000095,4.24998883 L10.8000095,2.74996649 Z" fill-rule="nonzero"></path>
                    <path d="M16.3999809,5 L19.6000191,5 C19.8400172,5 20,4.85001564 20,4.62501675 L20,2.37498325 C20,2.14998436 19.8400172,2 19.6000191,2 L16.3999809,2 C16.1599828,2 16,2.14998436 16,2.37498325 L16,4.62501675 C16,4.84997096 16.1599828,5 16.3999809,5 Z M16.8000095,2.74996649 L19.2000381,2.74996649 L19.2000381,4.24998883 L16.8000095,4.24998883 L16.8000095,2.74996649 Z" fill-rule="nonzero"></path>
                    <path d="M9.35712767,16 L13.6428723,16 C13.8571574,16 14,15.8000119 14,15.5 C14,15.1999881 13.8571574,15 13.6428723,15 L9.35712767,15 C9.14284256,15 9.00000001,15.1999881 9.00000001,15.5 C8.99995746,15.7999523 9.14284256,16 9.35712767,16 Z" fill-rule="nonzero"></path>
                </g>
            </g>
        </g>
    </g>
</svg>