<?xml version="1.0" encoding="UTF-8"?>
<svg width="28px" height="28px" viewBox="0 0 28 28" version="1.1" xmlns="http://www.w3.org/2000/svg" xmlns:xlink="http://www.w3.org/1999/xlink">
    <!-- Generator: Sketch 50.2 (55047) - http://www.bohemiancoding.com/sketch -->
    <title>Clock</title>
    <desc>Created with Sketch.</desc>
    <defs></defs>
    <g id="Our-Locations" stroke="none" stroke-width="1" fill="none" fill-rule="evenodd">
        <g id="Our-Locations-03" transform="translate(-1175.000000, -897.000000)" fill="#28AC58" fill-rule="nonzero">
            <g id="Clock" transform="translate(1175.000000, 897.000000)">
                <path d="M14.25,0.5 C6.8061,0.5 0.75,6.5561 0.75,14 C0.75,21.4439 6.8061,27.5 14.25,27.5 C21.6939,27.5 27.75,21.4439 27.75,14 C27.75,6.5561 21.6939,0.5 14.25,0.5 Z M14.25,26.6 C7.30245,26.6 1.65,20.94755 1.65,14 C1.65,7.05245 7.30245,1.4 14.25,1.4 C21.19755,1.4 26.85,7.05245 26.85,14 C26.85,20.94755 21.19755,26.6 14.25,26.6 Z" id="Shape"></path>
                <path d="M14.7,12.20945 L14.7,7.64555 C14.7,7.3967 14.4984,7.19555 14.25,7.19555 C14.0016,7.19555 13.8,7.3967 13.8,7.64555 L13.8,12.20945 C13.17045,12.37325 12.6777,12.866 12.5139,13.49555 L9.3,13.49555 C9.0516,13.49555 8.85,13.6967 8.85,13.94555 C8.85,14.1944 9.0516,14.39555 9.3,14.39555 L12.5139,14.39555 C12.71505,15.16955 13.4139,15.74555 14.25,15.74555 C15.2427,15.74555 16.05,14.93825 16.05,13.94555 C16.05,13.109 15.474,12.4106 14.7,12.20945 Z M14.25,14.84555 C13.75365,14.84555 13.35,14.4419 13.35,13.94555 C13.35,13.4492 13.75365,13.04555 14.25,13.04555 C14.74635,13.04555 15.15,13.4492 15.15,13.94555 C15.15,14.4419 14.74635,14.84555 14.25,14.84555 Z" id="Shape"></path>
                <path d="M14.25,4.94555 C14.4984,4.94555 14.7,4.7444 14.7,4.49555 L14.7,4.04555 C14.7,3.7967 14.4984,3.59555 14.25,3.59555 C14.0016,3.59555 13.8,3.7967 13.8,4.04555 L13.8,4.49555 C13.8,4.7444 14.0016,4.94555 14.25,4.94555 Z" id="Shape"></path>
                <path d="M14.25,22.94555 C14.0016,22.94555 13.8,23.1467 13.8,23.39555 L13.8,23.84555 C13.8,24.0944 14.0016,24.29555 14.25,24.29555 C14.4984,24.29555 14.7,24.0944 14.7,23.84555 L14.7,23.39555 C14.7,23.1467 14.4984,22.94555 14.25,22.94555 Z" id="Shape"></path>
                <path d="M24.15,13.49555 L23.7,13.49555 C23.4516,13.49555 23.25,13.6967 23.25,13.94555 C23.25,14.1944 23.4516,14.39555 23.7,14.39555 L24.15,14.39555 C24.3984,14.39555 24.6,14.1944 24.6,13.94555 C24.6,13.6967 24.3984,13.49555 24.15,13.49555 Z" id="Shape"></path>
                <path d="M4.8,13.49555 L4.35,13.49555 C4.1016,13.49555 3.9,13.6967 3.9,13.94555 C3.9,14.1944 4.1016,14.39555 4.35,14.39555 L4.8,14.39555 C5.0484,14.39555 5.25,14.1944 5.25,13.94555 C5.25,13.6967 5.0484,13.49555 4.8,13.49555 Z" id="Shape"></path>
                <path d="M20.93205,6.62675 L20.6139,6.9449 C20.43795,7.12085 20.43795,7.40525 20.6139,7.5812 C20.70165,7.66895 20.81685,7.71305 20.93205,7.71305 C21.04725,7.71305 21.16245,7.66895 21.2502,7.5812 L21.56835,7.26305 C21.7443,7.0871 21.7443,6.8027 21.56835,6.62675 C21.3924,6.4508 21.108,6.45125 20.93205,6.62675 Z" id="Shape"></path>
                <path d="M7.2498,20.30945 L6.93165,20.6276 C6.7557,20.80355 6.7557,21.08795 6.93165,21.2639 C7.0194,21.35165 7.1346,21.39575 7.2498,21.39575 C7.365,21.39575 7.4802,21.35165 7.56795,21.2639 L7.8861,20.94575 C8.06205,20.7698 8.06205,20.4854 7.8861,20.30945 C7.71015,20.1335 7.4253,20.13395 7.2498,20.30945 Z" id="Shape"></path>
                <path d="M21.2502,20.30945 C21.07425,20.1335 20.78985,20.1335 20.6139,20.30945 C20.43795,20.4854 20.43795,20.7698 20.6139,20.94575 L20.93205,21.2639 C21.0198,21.35165 21.135,21.39575 21.2502,21.39575 C21.3654,21.39575 21.4806,21.35165 21.56835,21.2639 C21.7443,21.08795 21.7443,20.80355 21.56835,20.6276 L21.2502,20.30945 Z" id="Shape"></path>
                <path d="M7.56795,6.62675 C7.392,6.4508 7.1076,6.4508 6.93165,6.62675 C6.7557,6.8027 6.7557,7.0871 6.93165,7.26305 L7.2498,7.5812 C7.33755,7.66895 7.45275,7.71305 7.56795,7.71305 C7.68315,7.71305 7.79835,7.66895 7.8861,7.5812 C8.06205,7.40525 8.06205,7.12085 7.8861,6.9449 L7.56795,6.62675 Z" id="Shape"></path>
            </g>
        </g>
    </g>
</svg>