<?xml version="1.0" encoding="UTF-8"?>
<svg width="59px" height="52px" viewBox="0 0 59 52" version="1.1" xmlns="http://www.w3.org/2000/svg" xmlns:xlink="http://www.w3.org/1999/xlink">
    <!-- Generator: Sketch 50.2 (55047) - http://www.bohemiancoding.com/sketch -->
    <title>Delete</title>
    <desc>Created with Sketch.</desc>
    <defs></defs>
    <g id="View-NA-for-Individual" stroke="none" stroke-width="1" fill="none" fill-rule="evenodd">
        <g id="View-NA-for-Individual-13" transform="translate(-691.000000, -274.000000)">
            <g id="Delete" transform="translate(692.000000, 274.000000)">
                <g>
                    <path d="M50.9092727,44.2521825 C50.3465455,45.0321825 49.7410909,45.7902877 49.0910909,46.5237614" id="Stroke-1" stroke="#BCC0C4" stroke-width="2"></path>
                    <path d="M53.6365455,39.6089474 C53.2074545,40.527614 52.7265455,41.4280351 52.1956364,42.3065614" id="Stroke-3" stroke="#BCC0C4" stroke-width="2"></path>
                    <path d="M55.328,35.0086807 C55.0743636,35.9328211 54.7752727,36.846014 54.4289091,37.7455228" id="Stroke-5" stroke="#BCC0C4" stroke-width="2"></path>
                    <path d="M49.5007273,8.55080702 C55.4261818,15.5370526 57.5152727,24.6790175 55.7652727,33.1842105" id="Stroke-7" stroke="#BCC0C4" stroke-width="2"></path>
                    <path d="M28.0204472,9 C17.5325544,9 9,17.5624932 9,28.0871856 C9,38.6120334 17.5325544,47.1745267 28.0204472,47.1745267 C38.50834,47.1745267 47.0408944,38.6120334 47.0408944,28.0871856 C47.0408944,17.5624932 38.50834,9 28.0204472,9" id="Fill-1" stroke="#3B3E41" stroke-width="2" fill="#F85359"></path>
                    <g id="Group" transform="translate(20.000000, 18.000000)" fill="#FFFFFF" fill-rule="nonzero">
                        <path d="M1.45,7.70853659 L1.45,18.0804878 C1.45,19.6426829 2.675,20.897561 4.2,20.897561 L11.8,20.897561 C13.325,20.897561 14.55,19.6426829 14.55,18.0804878 L14.55,7.70853659 C15.35,7.68292683 16,6.99146341 16,6.17195122 L16,4.09756098 C16,3.25243902 15.325,2.56097561 14.5,2.56097561 L11.65,2.56097561 L11.65,1.76707317 C11.65,0.845121951 10.925,0.102439024 10.025,0.102439024 L5.975,0.102439024 C5.075,0.102439024 4.35,0.845121951 4.35,1.76707317 L4.35,2.56097561 L1.5,2.56097561 C0.675,2.56097561 0,3.25243902 0,4.09756098 L0,6.19756098 C0,7.01707317 0.65,7.68292683 1.45,7.70853659 Z M11.8,19.3865854 L4.2,19.3865854 C3.5,19.3865854 2.95,18.8231707 2.95,18.1060976 L2.95,7.73414634 L13.05,7.73414634 L13.05,18.1060976 C13.05,18.797561 12.475,19.3865854 11.8,19.3865854 Z M5.85,1.76707317 C5.85,1.6902439 5.9,1.63902439 5.975,1.63902439 L10,1.63902439 C10.075,1.63902439 10.125,1.6902439 10.125,1.76707317 L10.125,2.56097561 L5.85,2.56097561 L5.85,1.76707317 Z M1.5,4.09756098 L14.5,4.09756098 L14.5,6.19756098 L1.5,6.19756098 L1.5,4.09756098 Z" id="Shape"></path>
                        <rect id="Rectangle-path" x="9.825" y="9.6804878" width="1.5" height="7.47804878"></rect>
                        <rect id="Rectangle-path" x="7.25" y="9.6804878" width="1.5" height="7.47804878"></rect>
                        <rect id="Rectangle-path" x="4.675" y="9.6804878" width="1.5" height="7.47804878"></rect>
                    </g>
                    <path d="M6.11781818,9.46418246 C6.83327273,8.54734035 7.61145455,7.66425263 8.45327273,6.82039298" id="Stroke-9" stroke="#BCC0C4" stroke-width="2"></path>
                    <path d="M3.20036364,14.0265895 C3.68036364,13.0915018 4.21490909,12.1783088 4.804,11.2897474" id="Stroke-11" stroke="#BCC0C4" stroke-width="2"></path>
                    <path d="M1.33027273,18.5878105 C1.62027273,17.6627579 1.95754545,16.7486526 2.34209091,15.8509684" id="Stroke-13" stroke="#BCC0C4" stroke-width="2"></path>
                    <path d="M6.047,45.0436772 C0.527909091,37.9160281 -1.213,28.7968702 0.823363636,20.4120982" id="Stroke-15" stroke="#BCC0C4" stroke-width="2"></path>
                    <path d="M43.6363636,0 L43.6363636,5.47368421" id="Stroke-35" stroke="#BCC0C4" stroke-width="2"></path>
                    <path d="M46.3636364,2.73684211 L40.9090909,2.73684211" id="Stroke-37" stroke="#BCC0C4" stroke-width="2"></path>
                    <path d="M10,46.5263158 L10,52" id="Stroke-39" stroke="#BCC0C4" stroke-width="2"></path>
                    <path d="M12.7272727,49.2631579 L7.27272727,49.2631579" id="Stroke-41" stroke="#BCC0C4" stroke-width="2"></path>
                </g>
            </g>
        </g>
    </g>
</svg>