<?xml version="1.0" encoding="UTF-8"?>
<svg width="18px" height="17px" viewBox="0 0 18 17" version="1.1" xmlns="http://www.w3.org/2000/svg" xmlns:xlink="http://www.w3.org/1999/xlink">
    <!-- Generator: Sketch 50.2 (55047) - http://www.bohemiancoding.com/sketch -->
    <title>Group 5</title>
    <desc>Created with Sketch.</desc>
    <defs></defs>
    <g id="Registration-NA-for-Individual" stroke="none" stroke-width="1" fill="none" fill-rule="evenodd">
        <g id="Registration-NA-for-Individual1" transform="translate(-783.000000, -795.000000)">
            <g id="Group-5" transform="translate(780.000000, 792.000000)">
                <rect id="Rectangle-2" x="0" y="0" width="24" height="24"></rect>
                <path d="M20.5914,18.3785355 L19.7742,18.3785355 L19.7742,8.66533103 C19.7742,7.77401529 19.04025,7.04787345 18.13935,7.04787345 L14.8656,7.04787345 L14.8656,18.3785355 L14.0484,18.3785355 L14.0484,4.61745757 C14.0484,3.73059397 13.30995,3 12.41355,3 L5.86515,3 C4.96425,3 4.2303,3.73059397 4.2303,4.61745757 L4.2303,18.3785355 L3.4131,18.3785355 C3.16695,18.3785355 3,18.5437094 3,18.7872407 L3,19.5957469 C3,19.8392782 3.16695,20 3.4131,20 L20.5914,20 C20.83755,20 21,19.8392782 21,19.5957469 L21,18.7872407 C21,18.5437094 20.83755,18.3785355 20.5914,18.3785355 Z M8.3217,14.7393673 C8.3217,14.9784465 8.15475,15.1436204 7.9131,15.1436204 L6.27375,15.1436204 C6.0276,15.1436204 5.86515,14.9784465 5.86515,14.7393673 L5.86515,13.926409 C5.86515,13.6873298 6.0276,13.5221559 6.27375,13.5221559 L7.9131,13.5221559 C8.15475,13.5221559 8.3217,13.6873298 8.3217,13.926409 L8.3217,14.7393673 Z M8.3217,11.5 C8.3217,11.7435313 8.15475,11.9042531 7.9131,11.9042531 L6.27375,11.9042531 C6.0276,11.9042531 5.86515,11.7435313 5.86515,11.5 L5.86515,10.6914938 C5.86515,10.4479625 6.0276,10.2872407 6.27375,10.2872407 L7.9131,10.2872407 C8.15475,10.2872407 8.3217,10.4479625 8.3217,10.6914938 L8.3217,11.5 Z M8.3217,8.26107794 C8.3217,8.50460926 8.15475,8.66533103 7.9131,8.66533103 L6.27375,8.66533103 C6.0276,8.66533103 5.86515,8.50460926 5.86515,8.26107794 L5.86515,7.45257176 C5.86515,7.20904044 6.0276,7.04831867 6.27375,7.04831867 L7.9131,7.04831867 C8.15475,7.04831867 8.3217,7.20904044 8.3217,7.45257176 L8.3217,8.26107794 Z M12.4131,14.7393673 C12.4131,14.9784465 12.24615,15.1436204 12,15.1436204 L10.36515,15.1436204 C10.119,15.1436204 9.95655,14.9784465 9.95655,14.7393673 L9.95655,13.926409 C9.95655,13.6873298 10.119,13.5221559 10.36515,13.5221559 L12,13.5221559 C12.24615,13.5221559 12.4131,13.6873298 12.4131,13.926409 L12.4131,14.7393673 Z M12.4131,11.5 C12.4131,11.7435313 12.24615,11.9042531 12,11.9042531 L10.36515,11.9042531 C10.119,11.9042531 9.95655,11.7435313 9.95655,11.5 L9.95655,10.6914938 C9.95655,10.4479625 10.119,10.2872407 10.36515,10.2872407 L12,10.2872407 C12.24615,10.2872407 12.4131,10.4479625 12.4131,10.6914938 L12.4131,11.5 Z M12.4131,8.26107794 C12.4131,8.50460926 12.24615,8.66533103 12,8.66533103 L10.36515,8.66533103 C10.119,8.66533103 9.95655,8.50460926 9.95655,8.26107794 L9.95655,7.45257176 C9.95655,7.20904044 10.119,7.04831867 10.36515,7.04831867 L12,7.04831867 C12.24615,7.04831867 12.4131,7.20904044 12.4131,7.45257176 L12.4131,8.26107794 Z M18.54795,14.7393673 C18.54795,14.9784465 18.3855,15.1436204 18.13935,15.1436204 L16.5,15.1436204 C16.25835,15.1436204 16.0914,14.9784465 16.0914,14.7393673 L16.0914,13.926409 C16.0914,13.6873298 16.25835,13.5221559 16.5,13.5221559 L18.13935,13.5221559 C18.3855,13.5221559 18.54795,13.6873298 18.54795,13.926409 L18.54795,14.7393673 Z M18.54795,11.5 C18.54795,11.7435313 18.3855,11.9042531 18.13935,11.9042531 L16.5,11.9042531 C16.25835,11.9042531 16.0914,11.7435313 16.0914,11.5 L16.0914,10.6914938 C16.0914,10.4479625 16.25835,10.2872407 16.5,10.2872407 L18.13935,10.2872407 C18.3855,10.2872407 18.54795,10.4479625 18.54795,10.6914938 L18.54795,11.5 Z" id="Shape" fill="#97A4B1" fill-rule="nonzero"></path>
            </g>
        </g>
    </g>
</svg>