<?xml version="1.0" encoding="UTF-8"?>
<svg width="15px" height="15px" viewBox="0 0 15 15" version="1.1" xmlns="http://www.w3.org/2000/svg" xmlns:xlink="http://www.w3.org/1999/xlink">
    <!-- Generator: Sketch 50.2 (55047) - http://www.bohemiancoding.com/sketch -->
    <title>info_mark</title>
    <desc>Created with Sketch.</desc>
    <defs></defs>
    <g id="Page-1" stroke="none" stroke-width="1" fill="none" fill-rule="evenodd">
        <g id="info_mark" fill="#8E8E8E" fill-rule="nonzero">
            <path d="M7.5,0 C3.36432693,0 0,3.36432693 0,7.5 C0,11.6356731 3.36432693,15 7.5,15 C11.6356731,15 15,11.6356731 15,7.5 C15,3.36432693 11.6356731,0 7.5,0 Z M8.07692307,11.8269231 C8.07692307,12.1453846 7.81846154,12.4038461 7.5,12.4038461 C7.18153846,12.4038461 6.92307693,12.1453846 6.92307693,11.8269231 L6.92307693,11.25 C6.92307693,10.9315385 7.18153846,10.6730769 7.5,10.6730769 C7.81846154,10.6730769 8.07692307,10.9315385 8.07692307,11.25 L8.07692307,11.8269231 Z M8.90596154,7.08663461 C8.39480769,7.41663461 8.07692307,8.03451922 8.07692307,8.69942307 L8.07692307,9.51923078 C8.07692307,9.83769231 7.81846154,10.0961539 7.5,10.0961539 C7.18153846,10.0961539 6.92307692,9.83769231 6.92307692,9.51923078 L6.92307692,8.69942307 C6.92307692,7.63038461 7.43076922,6.66490385 8.28057692,6.11711539 C8.70173077,5.84538461 8.94894231,5.38413461 8.94201922,4.88336539 C8.93163461,4.12326922 8.28057692,3.47221154 7.52048077,3.46182692 C7.12644231,3.4425 6.76413461,3.60375 6.48721154,3.87663461 C6.21028846,4.15009615 6.05769231,4.51471154 6.05769231,4.90384615 C6.05769231,5.22230769 5.79923077,5.48076922 5.48076922,5.48076922 C5.16230769,5.48076922 4.90384615,5.22230769 4.90384615,4.90384615 C4.90384615,4.20346154 5.17846154,3.54721154 5.67721154,3.05538461 C6.16673077,2.5725 6.81259615,2.30769231 7.49942307,2.30769231 C7.51182692,2.30769231 7.52423077,2.30798077 7.53692307,2.30798077 C8.92846154,2.32730769 10.0765385,3.47538461 10.0958654,4.86692307 C10.1085577,5.76807692 9.66375,6.59798077 8.90596154,7.08663461 Z" id="Shape"></path>
        </g>
    </g>
</svg>