<?xml version="1.0" encoding="UTF-8"?>
<svg width="16px" height="16px" viewBox="0 0 16 16" version="1.1" xmlns="http://www.w3.org/2000/svg" xmlns:xlink="http://www.w3.org/1999/xlink">
    <!-- Generator: Sketch 50.2 (55047) - http://www.bohemiancoding.com/sketch -->
    <title>info</title>
    <desc>Created with Sketch.</desc>
    <defs></defs>
    <g id="Account-settings,-Busniess-Users" stroke="none" stroke-width="1" fill="none" fill-rule="evenodd">
        <g id="Account-settings,Business-change-password-2" transform="translate(-420.000000, -301.000000)" fill="#8E8E8E" fill-rule="nonzero">
            <path d="M422.343008,303.343008 C419.218997,306.467018 419.218997,311.532982 422.343008,314.656992 C425.467018,317.781003 430.532982,317.781003 433.656992,314.656992 C436.781003,311.532982 436.781003,306.467018 433.656992,303.343008 C430.532982,300.218997 425.467018,300.218997 422.343008,303.343008 Z M428.320844,304.356201 C428.996306,304.356201 429.536675,304.913456 429.536675,305.588918 C429.536675,306.26438 428.97942,306.821636 428.320844,306.821636 C427.645383,306.821636 427.088127,306.26438 427.088127,305.572032 C427.088127,304.89657 427.645383,304.356201 428.320844,304.356201 Z M430.060158,312.61372 C430.026385,312.71504 429.958839,312.833245 429.891293,312.900792 C429.452243,313.356728 428.911873,313.626913 428.270185,313.626913 C427.966227,313.626913 427.679156,313.626913 427.375198,313.576253 C426.885488,313.508707 426.260686,312.900792 426.345119,312.259103 C426.412665,311.820053 426.480211,311.381003 426.547757,310.941953 C426.68285,310.182058 426.817942,309.405277 426.953034,308.645383 C426.953034,308.594723 426.969921,308.544063 426.969921,308.493404 C426.969921,308.172559 426.868602,308.054354 426.547757,308.02058 C426.412665,308.003694 426.277573,307.986807 426.14248,307.953034 C425.990501,307.902375 425.906069,307.767282 425.922955,307.649077 C425.939842,307.513984 426.024274,307.429551 426.19314,307.395778 C426.277573,307.378892 426.378892,307.378892 426.480211,307.378892 C426.851715,307.378892 427.223219,307.378892 427.611609,307.378892 C428.016887,307.378892 428.405277,307.378892 428.810554,307.378892 C429.097625,307.378892 429.266491,307.513984 429.266491,307.801055 C429.266491,308.037467 429.232718,308.273879 429.182058,308.51029 C429.030079,309.388391 428.861214,310.249604 428.709235,311.127704 C428.658575,311.414776 428.591029,311.701847 428.557256,311.988918 C428.540369,312.124011 428.557256,312.275989 428.591029,312.411082 C428.641689,312.596834 428.776781,312.698153 428.962533,312.681266 C429.114512,312.66438 429.266491,312.61372 429.41847,312.546174 C429.536675,312.495515 429.637995,312.411082 429.756201,312.377309 C429.958839,312.309763 430.110818,312.427968 430.060158,312.61372 Z" id="info"></path>
        </g>
    </g>
</svg>