<?xml version="1.0" encoding="UTF-8"?>
<svg width="55px" height="50px" viewBox="0 0 55 50" version="1.1" xmlns="http://www.w3.org/2000/svg" xmlns:xlink="http://www.w3.org/1999/xlink">
    <!-- Generator: Sketch 50.2 (55047) - http://www.bohemiancoding.com/sketch -->
    <title>confirm_na</title>
    <desc>Created with Sketch.</desc>
    <defs>
        <polygon id="path-1" points="0 0.187523464 22.1756657 0.187523464 22.1756657 36.8851614 0 36.8851614"></polygon>
        <polygon id="path-3" points="0 0 13.9769901 0 13.9769901 23.7704918 0 23.7704918"></polygon>
    </defs>
    <g id="Page-1" stroke="none" stroke-width="1" fill="none" fill-rule="evenodd">
        <g id="confirm_na" transform="translate(-2.000000, 0.000000)">
            <g id="Group-66">
                <g id="Group-35" transform="translate(19.468368, 0.000000)" stroke="#BCC0C4" stroke-width="0.9">
                    <path d="M35.0911564,10 L35.0911564,14" id="Stroke-11"></path>
                    <path d="M33.0666666,12 L37.1156462,12" id="Stroke-13"></path>
                    <path d="M2.0244898,0 L2.0244898,4" id="Stroke-15"></path>
                    <path d="M0,2 L4.04897959,2" id="Stroke-17"></path>
                    <path d="M33.0666666,3.33333334 C33.0666666,4.43779109 32.1601586,5.33333334 31.0421768,5.33333334 C29.9241952,5.33333334 29.0176871,4.43779109 29.0176871,3.33333334 C29.0176871,2.22887559 29.9241952,1.33333333 31.0421768,1.33333333 C32.1601586,1.33333333 33.0666666,2.22887559 33.0666666,3.33333334 Z" id="Stroke-35"></path>
                </g>
                <g id="Group-35" transform="translate(20.436055, 16.517857) scale(-1, 1) translate(-20.436055, -16.517857) translate(1.686055, 9.375000)" stroke="#BCC0C4" stroke-width="0.9">
                    <path d="M35.0911564,10 L35.0911564,14" id="Stroke-11"></path>
                    <path d="M33.0666666,12 L37.1156462,12" id="Stroke-13"></path>
                    <path d="M2.0244898,0 L2.0244898,4" id="Stroke-15"></path>
                    <path d="M0,2 L4.04897959,2" id="Stroke-17"></path>
                    <path d="M33.0666666,3.33333334 C33.0666666,4.43779109 32.1601586,5.33333334 31.0421768,5.33333334 C29.9241952,5.33333334 29.0176871,4.43779109 29.0176871,3.33333334 C29.0176871,2.22887559 29.9241952,1.33333333 31.0421768,1.33333333 C32.1601586,1.33333333 33.0666666,2.22887559 33.0666666,3.33333334 Z" id="Stroke-35"></path>
                </g>
                <path d="M50.5105443,28.6666666 C50.5105443,40.4483555 40.8419409,50 28.9159864,50 C16.9893121,50 7.32142857,40.4483555 7.32142857,28.6666666 C7.32142857,16.8849778 16.9893121,7.33333334 28.9159864,7.33333334 C40.8419409,7.33333334 50.5105443,16.8849778 50.5105443,28.6666666" id="Fill-1" fill="#E9EAEB" fill-rule="nonzero"></path>
            </g>
            <g id="Page-1" transform="translate(17.484009, 11.475411)">
                <g id="Group-3">
                    <g id="Fill-1-Clipped">
                        <mask id="mask-2" fill="white">
                            <use xlink:href="#path-1"></use>
                        </mask>
                        <g id="path-1"></g>
                        <path d="M6.95041402,9.74297021 C6.99220641,9.65962645 7.03625786,9.57797209 7.08087407,9.49631773 C7.03625786,9.57769054 6.99220641,9.65962645 6.95041402,9.74297021 M6.6827168,10.3336973 C6.71490823,10.2540139 6.74964111,10.1757383 6.78437396,10.0971812 C6.74964111,10.1757383 6.71490823,10.2540139 6.6827168,10.3336973 M7.26442175,9.17702102 C7.31525034,9.09367727 7.36749082,9.01174134 7.42114321,8.93008696 C7.36749082,9.01145977 7.31525034,9.09367727 7.26442175,9.17702102 M6.46330673,10.9472313 C6.48561482,10.8754317 6.51074673,10.8050401 6.53503152,10.7340852 C6.51046436,10.8050401 6.48561482,10.8754317 6.46330673,10.9472313 M13.216167,5.37164623 C13.2898684,5.36319923 13.3624404,5.35024716 13.4369889,5.34377112 C13.3624404,5.35024716 13.2898684,5.36319923 13.216167,5.37164623 M12.504002,5.48511762 C12.5892811,5.46737893 12.6731482,5.44626141 12.7592744,5.43133837 C12.6731482,5.44626141 12.5892811,5.4676605 12.504002,5.48511762 M11.8373003,5.65208671 C11.9248385,5.62618259 12.0112471,5.59689964 12.0999147,5.57381116 C12.0112471,5.59689964 11.9248385,5.62618259 11.8373003,5.65208671 M11.1996839,5.87114566 C11.2872221,5.83679452 11.3733483,5.80019084 11.4625807,5.76893693 C11.3736307,5.80019084 11.2872221,5.83679452 11.1996839,5.87114566 M10.5897409,6.13947879 C10.6761495,6.09724377 10.7611462,6.05303779 10.8492491,6.01390002 C10.7614286,6.05303779 10.6761495,6.09724377 10.5897409,6.13947879 M10.0097302,6.45483357 C10.0935974,6.40471468 10.1766174,6.35346954 10.2624613,6.3061663 C10.1766174,6.35346954 10.093315,6.40471468 10.0097302,6.45483357 M9.46021673,6.81467589 C9.54097771,6.75667312 9.62117393,6.6983888 9.70447632,6.64348329 C9.6214563,6.6983888 9.54097771,6.75667312 9.46021673,6.81467589 M9.60931391,7.74328307 C9.60197202,7.74694343 9.59463011,7.75032223 9.5872882,7.75370104 C9.59463011,7.75032223 9.60197202,7.74694343 9.60931391,7.74328307 M10.1531798,7.50901952 C10.1469674,7.51127205 10.1410374,7.51380616 10.134825,7.5160587 C10.1410374,7.51380616 10.1469674,7.51127205 10.1531798,7.50901952 M8.94458895,7.21562695 C9.02139659,7.15058504 9.09820423,7.08582468 9.1775533,7.02359843 C9.09820423,7.08554311 9.02139659,7.15058504 8.94458895,7.21562695 M8.46510593,7.65515268 C8.53683071,7.58363471 8.60883789,7.51267989 8.68338648,7.44397761 C8.60912027,7.51267989 8.53683071,7.58391629 8.46510593,7.65515268 M8.02374436,8.13043737 C8.08953914,8.05356964 8.15618107,7.97726505 8.22479966,7.90293143 C8.15618107,7.97726505 8.08953914,8.05356964 8.02374436,8.13043737 M7.62304566,8.63866538 C7.68178093,8.55757414 7.7416457,8.47760918 7.80320477,8.39905205 C7.7416457,8.47760918 7.68178093,8.55757414 7.62304566,8.63866538 M8.13952059,8.72003816 C8.13472011,8.72426166 8.13020202,8.72876673 8.12540154,8.73299023 C8.13020202,8.72876673 8.13472011,8.72426166 8.13952059,8.72003816 M8.62719266,8.33288388 C8.59782502,8.35400138 8.56902216,8.37624514 8.53993691,8.39792579 C8.56902216,8.37624514 8.59782502,8.35400138 8.62719266,8.33288388 M9.16399902,7.98486736 C9.11514709,8.01330559 9.06629518,8.04174384 9.01829039,8.07158991 C9.06629518,8.04174384 9.11514709,8.01330559 9.16399902,7.98486736 M5.46904307,9.77985546 C5.47101975,9.82096421 5.47045498,9.85953886 5.47299641,9.90121073 C5.47045498,9.85953886 5.47101975,9.82096421 5.46904307,9.77985546 M6.15014614,13.4433206 C5.80197032,12.2173789 5.57465359,11.1012483 5.49361023,10.1396978 C5.57521834,11.1009667 5.80507652,12.2170974 6.15014614,13.4433206 M0.456779573,14.12612 C0.392961459,13.9180422 0.33648525,13.710809 0.286786187,13.5016049 C0.337332393,13.7099643 0.392961459,13.9177606 0.456779573,14.12612 M2.10532011,5.29534164 C2.10899105,5.27985546 2.11209725,5.26408773 2.11605057,5.24860155 C2.11209725,5.26408773 2.10899105,5.27985546 2.10532011,5.29534164 M1.92572575,9.16744775 C1.89720527,8.97006945 1.87207336,8.77297271 1.85541288,8.57643913 C1.87235573,8.77297271 1.89720527,8.97006945 1.92572575,9.16744775 M2.07510532,9.99243837 C2.02088816,9.75479602 1.97627196,9.51743523 1.93956243,9.28007446 C1.97627196,9.51743523 2.02117055,9.75479602 2.07510532,9.99243837 M1.95904671,6.02122075 C1.966671,5.97617007 1.97231863,5.93055625 1.98050768,5.88550557 C1.97231863,5.93055625 1.966671,5.97617007 1.95904671,6.02122075 M1.86360193,6.77553811 C1.87094384,6.69613629 1.8757443,6.61617132 1.8847805,6.53733262 C1.8757443,6.61617132 1.87094384,6.69613629 1.86360193,6.77553811 M1.82350382,7.55547804 C1.82519811,7.4380647 1.82463334,7.32036979 1.83056334,7.20380114 C1.82491573,7.32036979 1.82519811,7.4380647 1.82350382,7.55547804 M1.81983286,7.88378487 C1.82265668,8.04061757 1.83310477,8.19801339 1.84298811,8.35569079 C1.83310477,8.19801339 1.82265668,8.04061757 1.81983286,7.88378487 M17.8652884,2.49318921 C17.7009427,2.48248968 17.5368793,2.4754505 17.3733807,2.47207171 C17.5394207,2.4754505 17.7057432,2.48220811 17.8726304,2.49318921 C15.9942317,1.04565449 13.644539,0.187438995 11.0926615,0.187438995 C10.8831348,0.187438995 10.7761124,0.19475973 10.5739276,0.202362032 C7.55075613,2.14235702 5.64750789,5.53016832 5.64750789,9.38059379 L5.64750789,9.37299148 C5.64750789,5.52284757 7.55075613,2.14235702 10.5665857,0.19475973 C7.27374032,0.373836191 4.30760986,1.98580591 2.39927877,4.41826116 C2.39814923,4.42248468 2.37329971,4.42670818 2.3718878,4.43065011 C1.60296422,5.40712364 0.988785457,6.50973909 0.585262948,7.70893193 C0.218732355,8.75382618 -0.000112952417,9.85813102 -0.000112952417,10.9849612 L-0.000112952417,11.2459736 C-0.000112952417,11.5968058 0.0272780087,11.9698818 0.0795185016,12.3801245 C0.109450892,12.6264954 0.152937573,12.8801871 0.197836159,13.126558 C0.202636636,13.1504912 0.209696163,13.1747059 0.214779021,13.1989207 C1.12206931,17.8408303 4.68938902,25.1646634 7.50133945,30.4398166 C7.498798,30.4440402 7.49569182,30.4488268 7.49315039,30.4530504 C7.90486195,31.2217275 8.32956304,31.9529564 8.70371791,32.6244932 C10.6945043,28.7143755 16.0956065,17.3199318 16.0956065,12.6785853 L16.0956065,12.7681235 C16.0956065,13.3129552 15.9027402,14.0219403 15.6483149,14.8277844 C15.0197347,16.7903047 13.7747167,19.2900545 12.756733,21.2151264 C12.3004053,22.0806627 11.8723156,22.8268145 11.5729917,23.3567232 C11.2810097,23.8641064 11.127112,24.1701696 11.1121458,24.1850927 L11.1016977,24.1972 C11.0932263,24.186782 11.0836253,24.1763641 11.0751539,24.1659461 C10.89443,23.8593198 8.37050829,19.5479696 7.00717261,16.0739989 C6.76771348,15.4024621 6.54293818,14.7455669 6.34837764,14.1114785 C6.34498907,14.100779 6.34216525,14.0909242 6.33905907,14.0802246 C6.21085807,13.5815699 6.13856854,13.1389469 6.13856854,12.7681235 C6.13856854,12.6861876 6.13856854,12.6039701 6.14591043,12.5144319 C6.15353471,12.4099706 6.16087663,12.3131116 6.16850091,12.2086504 C6.2133995,11.7235108 6.2806062,11.283422 6.37802764,10.8878207 C6.69853014,9.60021588 7.23335982,8.42298523 7.93281768,7.38175134 C7.23477173,8.42298523 6.70248346,9.60021588 6.38536955,10.8878207 C6.28823048,11.283422 6.22074141,11.7235108 6.17584282,12.2086504 C6.1984333,11.9772025 6.24333189,11.7533569 6.30319668,11.5295113 C6.34075336,11.3653579 6.38875812,11.205428 6.43619814,11.0452165 C6.48956816,10.9258322 6.5426558,10.8064479 6.60252057,10.6938212 C6.79708112,10.2835784 7.04388214,9.90290014 7.33586414,9.55967025 C7.36071368,9.52869791 7.38923416,9.50054123 7.41464846,9.46985046 C8.31855018,8.46690964 9.62964536,7.8285978 11.0926615,7.8285978 C11.4967488,7.8285978 11.8858699,7.87336691 12.2600248,7.97022587 C12.5819391,8.04484107 12.7979606,8.15690464 13.0972846,8.29121198 C15.2001762,9.20883807 16.6603686,11.1862814 16.9427496,13.626339 L16.9427496,13.6488643 C17.7898927,17.609664 12.9758607,28.0372075 11.7356432,30.8734295 C12.9741664,28.0251002 17.7898927,17.6071299 16.9427496,13.6561851 L16.9427496,13.6339413 C16.9427496,12.1788043 16.2441389,10.8878207 15.3235767,9.88797711 C14.7023384,9.20883807 13.9825491,8.67160868 13.1371003,8.29853273 C13.5860861,8.50745527 14.0192587,8.78367225 14.3784473,9.1043768 C15.0595504,9.71622137 15.5794139,10.5147447 15.8338392,11.4177293 C15.9010459,11.6488956 15.9515921,11.8952666 15.9888664,12.1413559 C16.0111745,12.3131116 16.0289645,12.4921881 16.0289645,12.6785853 C16.2085589,17.3275341 10.6645719,28.7143755 8.6816922,32.6244932 C9.19054284,33.5573239 9.65505964,34.3780909 10.0292145,35.0420254 C10.0297793,35.0408991 10.0309088,35.0394912 10.0314736,35.0380834 C10.0450279,35.0592009 10.0529345,35.0806 10.0670536,35.1017175 C10.7032581,36.221227 11.0923792,36.8851614 11.0923792,36.8851614 C11.0923792,36.8851614 13.0981317,33.4976318 15.3955839,29.0725284 C16.5954209,25.5982762 19.1337441,17.7526999 19.1173661,13.6657584 C19.1376975,17.7555156 16.5962681,25.6106652 15.3955839,29.0874514 C17.1243206,25.774537 19.0176855,21.87174 20.364643,18.3870698 C21.2403066,16.0962426 21.891195,13.9920942 22.1010041,12.3353554 C22.1532446,11.9473564 22.175835,11.5818828 22.175835,11.2459736 C22.175835,7.67908584 20.4843727,4.5154017 17.8652884,2.49318921" id="Fill-1" fill="#3B3E41" fill-rule="nonzero" mask="url(#mask-2)"></path>
                    </g>
                </g>
                <g id="Group-3" transform="translate(4.131130, 4.918032)">
                    <g id="Fill-1-Clipped">
                        <mask id="mask-4" fill="white">
                            <use xlink:href="#path-3"></use>
                        </mask>
                        <g id="path-3"></g>
                        <path d="M4.3807573,6.18947612 C4.40753136,6.13549123 4.43575264,6.08260064 4.46433575,6.02971005 C4.43575264,6.08241827 4.40753136,6.13549123 4.3807573,6.18947612 M4.21203391,6.5721122 C4.23265716,6.52049829 4.25490855,6.46979627 4.27715995,6.41891186 C4.25490855,6.46979627 4.23265716,6.52049829 4.21203391,6.5721122 M4.57866916,5.82288959 C4.61123218,5.76890471 4.64469973,5.71583173 4.67907182,5.66294114 C4.64469973,5.71564936 4.61123218,5.76890471 4.57866916,5.82288959 M4.07374479,6.96952118 C4.08803634,6.92301393 4.10413695,6.87741859 4.11969482,6.8314585 C4.10395604,6.87741859 4.08803634,6.92301393 4.07374479,6.96952118 M8.3299173,3.35800555 C8.37713368,3.35253411 8.42362645,3.34414457 8.47138555,3.33994979 C8.42362645,3.34414457 8.37713368,3.35253411 8.3299173,3.35800555 M7.88105609,3.43150523 C7.93568961,3.42001521 7.98941859,3.40633661 8.04459484,3.39667039 C7.98941859,3.40633661 7.93568961,3.42019759 7.88105609,3.43150523 M7.46084938,3.53965737 C7.51693014,3.5228783 7.57228729,3.50391062 7.62909166,3.48895536 C7.57228729,3.50391062 7.51693014,3.5228783 7.46084938,3.53965737 M7.05897443,3.68155007 C7.1150552,3.65929955 7.17023143,3.63558998 7.22739763,3.61534564 C7.17041234,3.63558998 7.1150552,3.65929955 7.05897443,3.68155007 M6.67454134,3.8553595 C6.72989848,3.8280023 6.78435111,3.79936843 6.84079368,3.77401743 C6.784532,3.79936843 6.72989848,3.8280023 6.67454134,3.8553595 M6.30897396,4.05962662 C6.36270295,4.02716275 6.41588923,3.99396934 6.47088455,3.96332927 C6.41588923,3.99396934 6.36252205,4.02716275 6.30897396,4.05962662 M5.96262823,4.29271 C6.01436727,4.25513945 6.06574448,4.2173865 6.11911166,4.18182214 C6.06592539,4.2173865 6.01436727,4.25513945 5.96262823,4.29271 M6.05682911,4.89420371 C6.05212555,4.89657468 6.04742202,4.89876325 6.04271846,4.90095182 C6.04742202,4.89876325 6.05212555,4.89657468 6.05682911,4.89420371 M6.39957721,4.74246243 C6.39559729,4.74392148 6.39179827,4.74556291 6.38781834,4.74702196 C6.39179827,4.74556291 6.39559729,4.74392148 6.39957721,4.74246243 M5.63763991,4.55242105 C5.68684625,4.51029096 5.73605261,4.46834325 5.78688711,4.42803696 C5.73605261,4.46816087 5.68684625,4.51029096 5.63763991,4.55242105 M5.33543279,4.83711836 C5.38138284,4.79079348 5.42751379,4.74483339 5.47527289,4.70033234 C5.4276947,4.74483339 5.38138284,4.79097587 5.33543279,4.83711836 M5.05725275,5.14497809 C5.09940377,5.09518798 5.14209752,5.04576262 5.18605759,4.99761395 C5.14209752,5.04576262 5.09940377,5.09518798 5.05725275,5.14497809 M4.80470157,5.47417643 C4.84232995,5.42165061 4.88068196,5.3698543 4.92011939,5.31896989 C4.88068196,5.3698543 4.84232995,5.42165061 4.80470157,5.47417643 M5.13037021,5.52688464 C5.1272948,5.52962037 5.12440032,5.53253846 5.12132493,5.5352742 C5.12440032,5.53253846 5.1272948,5.52962037 5.13037021,5.52688464 M5.43849689,5.27611029 C5.4196827,5.28978887 5.40123032,5.30419702 5.38259704,5.31824037 C5.40123032,5.30419702 5.4196827,5.28978887 5.43849689,5.27611029 M5.77743957,5.05068693 C5.74614289,5.06910745 5.7148462,5.08752796 5.68409223,5.10686037 C5.7148462,5.08752796 5.74614289,5.06910745 5.77743957,5.05068693 M3.44708327,6.21336807 C3.44834961,6.23999575 3.4479878,6.264982 3.44961595,6.29197445 C3.4479878,6.264982 3.44834961,6.23999575 3.44708327,6.21336807 M3.87636688,8.58633191 C3.65691966,7.79224348 3.51364714,7.06928379 3.46256738,6.44645145 C3.51400311,7.06910141 3.65887741,7.79206111 3.87636688,8.58633191 M0.289731159,9.0286067 C0.248846471,8.89382687 0.212665332,8.7595942 0.180825929,8.62408486 C0.213208048,8.75904705 0.248846471,8.8936445 0.289731159,9.0286067 M1.32700603,3.3085802 C1.32935781,3.29854923 1.33134777,3.28833587 1.33388045,3.27830489 C1.33134777,3.28833587 1.32935781,3.29854923 1.32700603,3.3085802 M1.21454078,5.81668862 C1.1962693,5.68883929 1.18016869,5.56117234 1.16949526,5.43387016 C1.1803496,5.56117234 1.1962693,5.68883929 1.21454078,5.81668862 M1.30936752,6.351066 C1.27463363,6.19713614 1.24605053,6.04338864 1.22253278,5.88964116 C1.24605053,6.04338864 1.27481453,6.19713614 1.30936752,6.351066 M1.23481329,3.77875934 C1.23969774,3.74957832 1.24331585,3.72003254 1.24856212,3.69085152 C1.24331585,3.72003254 1.23969774,3.74957832 1.23481329,3.77875934 M1.17465663,4.267359 C1.17936018,4.21592745 1.18243557,4.16413114 1.18822456,4.11306437 C1.18243557,4.16413114 1.17936018,4.21592745 1.17465663,4.267359 M1.14938371,4.77255536 C1.15046915,4.69650232 1.15010734,4.62026693 1.15390636,4.54476104 C1.15028824,4.62026693 1.15046915,4.69650232 1.14938371,4.77255536 M1.14706999,4.98521202 C1.14887905,5.08679843 1.15557256,5.18874961 1.16190426,5.29088318 C1.15557256,5.18874961 1.14887905,5.08679843 1.14706999,4.98521202 M11.2601516,1.49352093 C11.1565683,1.48659044 11.0531629,1.48203091 10.9501135,1.47984233 C11.0547647,1.48203091 11.1595939,1.48640806 11.2647791,1.49352093 C10.0808676,0.555898377 8.59991034,0 6.99152066,0 C6.85946077,0 6.792007,0.00474191529 6.66457455,0.00966621193 C4.75913913,1.26627376 3.55956554,3.46068625 3.55956554,5.9547513 L3.55956554,5.94982702 C3.55956554,3.45594434 4.75913913,1.26627376 6.65994713,0.00474191529 C4.58454243,0.120736458 2.71505861,1.16486973 1.51228142,2.74046227 C1.51156951,2.743198 1.49590742,2.74593371 1.49501753,2.74848705 C1.01038268,3.38098561 0.623279927,4.095191 0.368948968,4.8719532 C0.137933165,5.54877041 0,6.26407009 0,6.99396029 L0,7.1630278 C0,7.39027498 0.0172638929,7.63193027 0.0501898741,7.89765991 C0.0690555714,8.05724359 0.0964642261,8.2215692 0.124762772,8.38115289 C0.127788403,8.3966553 0.13223786,8.41234011 0.135441469,8.42802489 C0.707285673,11.4347639 2.95568525,16.1786854 4.72799293,19.5956002 C4.72639113,19.5983359 4.72443336,19.6014364 4.72283155,19.6041721 C4.98232389,20.1020732 5.25000321,20.5757175 5.48582443,21.0106971 C6.74057129,18.4779671 10.1447618,11.0973584 10.1447618,8.09098414 L10.1447618,8.14898141 C10.1447618,8.50188934 10.0232026,8.96112561 9.8628442,9.48310105 C9.46666455,10.7542991 8.68195834,12.3734808 8.04034664,13.6204221 C7.75273375,14.1810624 7.48291868,14.664373 7.2942617,15.0076147 C7.11023216,15.3362659 7.013234,15.5345145 7.00380116,15.5441807 L6.99721596,15.5520231 C6.99187661,15.545275 6.98582536,15.5385269 6.980486,15.5317787 C6.86657991,15.3331655 5.27581007,12.5405421 4.41653095,10.2903209 C4.26560536,9.85534139 4.12393466,9.4298457 4.00130763,9.01912287 C3.99917189,9.01219237 3.99739211,9.00580904 3.99543434,8.99887854 C3.9146322,8.67588116 3.86906977,8.38917766 3.86906977,8.14898141 C3.86906977,8.09590845 3.86906977,8.04265309 3.8736972,7.98465582 C3.87850261,7.91699234 3.88313005,7.85425314 3.88793546,7.78658966 C3.916234,7.47234659 3.95859284,7.18728452 4.01999534,6.93103871 C4.22200068,6.09700877 4.55909154,5.33447232 4.99994373,4.66002605 C4.55998143,5.33447232 4.22449238,6.09700877 4.02462279,6.93103871 C3.96339825,7.18728452 3.92086145,7.47234659 3.89256289,7.78658966 C3.90680116,7.63667218 3.9350997,7.491679 3.97283111,7.34668582 C3.99650221,7.2403575 4.02675852,7.13676489 4.05665888,7.03298989 C4.09029677,6.9556602 4.12375668,6.8783305 4.16148807,6.80537796 C4.28411511,6.53964832 4.43966813,6.29306873 4.62369766,6.07074586 C4.63935975,6.05068391 4.65733555,6.03244577 4.67335359,6.0125662 C5.24306205,5.3629238 6.0694152,4.94946527 6.99152066,4.94946527 C7.24620757,4.94946527 7.49146164,4.97846391 7.72728286,5.04120309 C7.93017809,5.08953416 8.06633146,5.16212193 8.25498845,5.24911784 C9.58039268,5.84349868 10.5007183,7.12436295 10.6786966,8.7048798 L10.6786966,8.7194703 C11.2126314,11.2850289 8.17845779,18.03934 7.3967772,19.8764675 C8.17738991,18.0314977 11.2126314,11.2833874 10.6786966,8.72421221 L10.6786966,8.70980409 C10.6786966,7.76725723 10.2383784,6.93103871 9.65816918,6.28340252 C9.26661696,5.84349868 8.81295034,5.49551505 8.28008338,5.25385975 C8.56306884,5.38918671 8.83608752,5.56810284 9.06247589,5.7758352 C9.49175948,6.17214989 9.8194175,6.68938341 9.97977593,7.27428043 C10.0221348,7.42401552 10.0539929,7.58359921 10.077486,7.74300052 C10.0915463,7.85425314 10.1027589,7.9702477 10.1027589,8.09098414 C10.2159531,11.1022827 6.72170559,18.4779671 5.47194213,21.0106971 C5.79265898,21.6149266 6.08543325,22.1465682 6.32125446,22.5766234 C6.32161043,22.5758939 6.32232234,22.574982 6.32267829,22.5740702 C6.33122125,22.5877487 6.33620464,22.6016096 6.34510355,22.6152882 C6.74608861,23.3404366 6.99134268,23.7704918 6.99134268,23.7704918 C6.99134268,23.7704918 8.25552238,21.5762616 9.70355364,18.7099562 C10.4597833,16.4595527 12.0596301,11.3776786 12.0493073,8.73041318 C12.0621218,11.3795024 10.4603173,16.4675775 9.70355364,18.7196225 C10.7931367,16.5737234 11.986481,14.0457355 12.8354374,11.7885838 C13.387348,10.3047291 13.7975879,8.94179318 13.9298258,7.86866127 C13.9627518,7.61733977 13.9769901,7.38060877 13.9769901,7.1630278 C13.9769901,4.85262077 12.9109002,2.80338384 11.2601516,1.49352093" id="Fill-1" fill="#3B3E41" fill-rule="nonzero" mask="url(#mask-4)"></path>
                    </g>
                </g>
                <path d="M10.7302772,8.60509368 C10.4736447,8.43422209 10.197405,8.29164998 9.91471216,8.1967213 C10.197405,8.30132195 10.4671917,8.43422209 10.7302772,8.60509368" id="Fill-4" fill="#3B3E41" fill-rule="nonzero"></path>
                <path d="M7.54819386,10.1764511 C7.5841468,10.1021317 7.62192346,10.0288816 7.6604817,9.95616625 C7.62192346,10.0288816 7.5841468,10.1021317 7.54819386,10.1764511 M7.31788654,10.7041723 C7.34550257,10.6330609 7.37546336,10.5630189 7.40516363,10.4929769 C7.37520284,10.5630189 7.34550257,10.6330609 7.31788654,10.7041723 M7.81862257,9.67091879 C7.86213086,9.59633204 7.90720232,9.52308198 7.95357641,9.45036661 C7.90720232,9.52308198 7.86213086,9.59633204 7.81862257,9.67091879 M7.12874273,11.2524784 C7.14802186,11.1883177 7.16964573,11.1252264 7.19048802,11.0621352 C7.16964573,11.1252264 7.14802186,11.1883177 7.12874273,11.2524784 M12.9424394,6.27093993 C13.0060084,6.26345452 13.0682747,6.25195907 13.1323647,6.24607768 C13.0682747,6.25195907 13.0060084,6.26345452 12.9424394,6.27093993 M12.3294155,6.37226025 C12.402624,6.35675477 12.4747905,6.33750659 12.5490411,6.32440713 C12.4747905,6.33750659 12.402624,6.35675477 12.3294155,6.37226025 M11.7552104,6.52170107 C11.8307637,6.49844284 11.9050143,6.47224391 11.9816097,6.45165904 C11.9050143,6.47224391 11.8307637,6.49844284 11.7552104,6.52170107 M11.2062765,6.71712366 C11.2818298,6.68664736 11.3560805,6.65376504 11.4326759,6.62596209 C11.3560805,6.65376504 11.2818298,6.68664736 11.2062765,6.71712366 M10.6813113,6.95719136 C10.7555619,6.91922964 10.829031,6.87993127 10.9048449,6.84464291 C10.829031,6.87993127 10.7555619,6.91922964 10.6813113,6.95719136 M10.1818779,7.23869612 C10.2540443,7.1937837 10.3254292,7.14806923 10.3994193,7.1060975 C10.3256897,7.14806923 10.2540443,7.1937837 10.1818779,7.23869612 M9.70875787,7.56003396 C9.77857955,7.50843812 9.84761964,7.45630761 9.91900448,7.40738512 C9.84761964,7.45630761 9.77831902,7.50843812 9.70875787,7.56003396 M9.8371985,8.38984482 C9.8309458,8.39305284 9.82469312,8.39599354 9.81844043,8.39920157 C9.82469312,8.39599354 9.8309458,8.39305284 9.8371985,8.38984482 M10.3053685,8.18052075 C10.3001579,8.18239211 10.2949473,8.18479812 10.2897367,8.18693682 C10.2949473,8.18479812 10.3001579,8.18239211 10.3053685,8.18052075 M9.26507759,7.9185315 C9.33125187,7.86025227 9.39716562,7.80224036 9.46542412,7.7469018 C9.39716562,7.80224036 9.33125187,7.86051959 9.26507759,7.9185315 M8.8521397,8.31124804 C8.91388498,8.24735475 8.97615134,8.18399612 9.04024138,8.12250884 C8.97615134,8.18399612 8.91388498,8.24735475 8.8521397,8.31124804 M8.47228895,8.73577755 C8.52882366,8.66707221 8.58613996,8.59916888 8.64527996,8.53260221 C8.58613996,8.59890154 8.52882366,8.66707221 8.47228895,8.73577755 M8.1270885,9.18971404 C8.17789157,9.11726598 8.22921571,9.04588729 8.28236355,8.97557793 C8.22947625,9.04588729 8.17789157,9.11726598 8.1270885,9.18971404 M8.57181088,9.26269675 C8.56764243,9.26643946 8.5637345,9.2704495 8.55982657,9.2741922 C8.5637345,9.2704495 8.56764243,9.26643946 8.57181088,9.26269675 M8.99178305,8.91649668 C8.96651177,8.93547754 8.94176155,8.95526039 8.91649027,8.97477591 C8.94176155,8.95526039 8.96651177,8.93547754 8.99178305,8.91649668 M9.45396086,8.60558495 C9.41175521,8.63098186 9.36981011,8.65664611 9.32838605,8.68311238 C9.36981011,8.65637877 9.41175521,8.6312492 9.45396086,8.60558495 M6.27290616,10.2093334 C6.27446932,10.2459584 6.27394827,10.2804448 6.27629302,10.3178718 C6.27394827,10.2804448 6.27446932,10.2462258 6.27290616,10.2093334 M6.85909559,13.482595 C6.55948766,12.3870522 6.36383064,11.3898891 6.29400896,10.5309386 C6.3643517,11.3896217 6.56209295,12.3867849 6.85909559,13.482595 M1.95777027,14.0923884 C1.90279873,13.9065899 1.85407988,13.7213261 1.8116137,13.5347255 C1.85486145,13.720524 1.90279873,13.9063225 1.95777027,14.0923884 M3.37686977,6.20276925 C3.38025664,6.18886779 3.38286193,6.1749663 3.3862488,6.16106484 C3.38286193,6.1749663 3.38025664,6.18886779 3.37686977,6.20276925 M3.22237629,9.6620967 C3.19788661,9.48592229 3.17626271,9.30974789 3.16193364,9.13410816 C3.17626271,9.30974789 3.19788661,9.48592229 3.22237629,9.6620967 M3.35081691,10.3994093 C3.30444282,10.1871445 3.26588457,9.97487977 3.23436061,9.76288236 C3.26588457,9.97487977 3.30470334,10.1871445 3.35081691,10.3994093 M3.25129496,6.85132632 C3.25754766,6.81095859 3.2624977,6.77032352 3.26953198,6.72995579 C3.26275823,6.77032352 3.25754766,6.81095859 3.25129496,6.85132632 M3.16896793,7.52528029 C3.17522061,7.45416893 3.17938907,7.38305755 3.18720493,7.31248086 C3.17938907,7.38305755 3.17522061,7.45416893 3.16896793,7.52528029 M3.13457814,8.22222516 C3.13588079,8.11716212 3.13535973,8.01209909 3.14030977,7.90783807 C3.13562025,8.01209909 3.13588079,8.11716212 3.13457814,8.22222516 M3.13119127,8.51522539 C3.13379655,8.65530943 3.14265454,8.79619548 3.15125196,8.93708154 C3.14265454,8.79619548 3.13353602,8.65530943 3.13119127,8.51522539 M16.9446804,3.69916791 C16.8032133,3.68981114 16.6622673,3.68339509 16.5213213,3.68045439 C16.6643515,3.68339509 16.8076423,3.6895438 16.9511936,3.69916791 C15.3340923,2.40579648 13.3110874,1.63934426 11.1143099,1.63934426 C10.9337635,1.63934426 10.8024571,1.64602766 10.6286845,1.65271106 C8.02574286,3.38585014 6.34819893,6.41262798 6.34819893,9.85270723 L6.34819893,9.84602384 C6.34819893,6.40594459 8.02574286,3.38585014 10.6221713,1.64602766 C7.78735914,1.80589457 5.25345757,3.24603343 3.61056396,5.41920754 C3.60952186,5.42295023 3.59805859,5.42669293 3.59675595,5.43043564 C2.93475268,6.30248557 2.45798525,7.28761861 2.11070057,8.35936852 C1.79493988,9.29263837 1.65868339,10.2793754 1.65868339,11.2858954 L1.65868339,11.5192797 C1.65868339,11.8325974 1.63497528,12.1659654 1.68004674,12.5327503 C1.70583907,12.7527678 1.71990762,12.9792014 1.75846586,13.1992189 C1.76263431,13.2208731 1.75690268,13.2425273 1.76107114,13.2641815 C2.54213602,17.4113644 5.607516,23.9546796 8.02834814,28.6675454 C8.02626391,28.6715554 8.02053229,28.6755655 8.01844805,28.6795755 C8.372767,29.3660943 8.75965204,30.0194634 9.08192596,30.6193654 C10.7954228,27.1260862 15.4667014,16.9459325 15.4667014,12.7992843 L15.4667014,12.8792177 C15.4667014,13.3660365 15.2780786,13.9993554 15.0589741,14.7192912 C14.5178561,16.4727478 13.434578,18.7060725 12.5584201,20.4261121 C12.1652824,21.1995152 11.7911633,21.8659837 11.5335005,22.3394357 C11.2820903,22.7928375 11.1466154,23.0660548 11.1338495,23.0794216 L11.1234284,23.0903825 C11.1161336,23.0810257 11.1070151,23.0716689 11.0997203,23.0625795 C10.9444452,22.7882929 8.77111529,18.9365161 7.59743377,15.8327455 C7.39135561,15.2325763 7.1975223,14.6460412 7.03000238,14.0792889 C7.02713657,14.0699321 7.0247918,14.0608427 7.021926,14.051486 C6.91146186,13.6061042 6.84945604,13.2107143 6.84945604,12.8792177 C6.84945604,12.8059677 6.8491955,12.7327176 6.85570871,12.6527842 C6.86222195,12.5592166 6.86847463,12.4725997 6.87498784,12.3792995 C6.91354609,11.9459479 6.97164396,11.5526967 7.0555342,11.1992785 C7.33143402,10.0489318 7.79178813,8.99723214 8.39386982,8.06690296 C7.79309077,8.99723214 7.33456036,10.0489318 7.06178688,11.1992785 C6.97815718,11.5526967 6.9200593,11.9459479 6.88150105,12.3792995 C6.90078018,12.1726488 6.93933841,11.9726815 6.99092309,11.7727142 C7.02348916,11.6259467 7.0646527,11.482922 7.1055557,11.3398972 C7.15140873,11.2332302 7.19726177,11.1265631 7.24858591,11.0260448 C7.41610582,10.6592599 7.6286972,10.3192085 7.88010734,10.0125741 C7.9014707,9.98503854 7.92596037,9.95964162 7.94784479,9.93237336 C8.72604384,9.03653052 9.85465391,8.46603557 11.1143099,8.46603557 C11.4621156,8.46603557 11.7971555,8.50586862 12.1191689,8.59275282 C12.3963713,8.65931946 12.6311076,8.75930312 12.8887705,8.87933698 C14.699184,9.69925639 15.9877587,11.4660798 16.2482873,13.6459373 L16.2482873,13.6659875 C16.7693446,17.2047137 12.8332779,26.5211048 11.765371,29.0549152 C12.8317147,26.5101441 16.7693446,17.202575 16.2482873,13.6726709 L16.2482873,13.6526207 C16.2482873,12.3525659 15.5980078,11.1992785 14.8054797,10.306109 C14.2708749,9.69925639 13.6265876,9.21938832 12.8986706,8.88602037 C13.2852951,9.07262087 13.6461272,9.31937198 13.9553747,9.60595614 C14.5415642,10.1526582 14.9828997,10.8659106 15.2020043,11.6727305 C15.2601022,11.8793812 15.3002236,12.0993987 15.3325291,12.3194162 C15.3518082,12.4725997 15.3656163,12.632734 15.3656163,12.7992843 C15.5201097,16.9526159 10.746704,27.1260862 9.03919927,30.6193654 C9.47740845,31.4529189 9.87705937,32.1862214 10.1990728,32.77944 C10.1998544,32.7783705 10.2003754,32.7770339 10.2008965,32.7759646 C10.2126203,32.7949454 10.219394,32.8139262 10.2316389,32.8329071 C10.7792701,33.8327436 11.1143099,34.4262295 11.1143099,34.4262295 C11.1143099,34.4262295 12.8408332,31.3994516 14.8187666,27.4460873 C15.8517627,24.3420495 18.037077,17.3325003 18.0227479,13.6812256 C18.0402032,17.3351737 15.8525443,24.3530102 14.8187666,27.4594541 C16.3069062,24.4995104 17.9370339,21.0126473 19.096647,17.8992525 C19.8503563,15.8527957 20.4110139,13.9726219 20.5912998,12.4926499 C20.6363712,12.1459152 20.6556504,11.8192306 20.6556504,11.5192797 C20.6556504,8.33263491 19.1998163,5.50582437 16.9446804,3.69916791" id="Fill-6" fill="#69BC52" fill-rule="nonzero"></path>
            </g>
        </g>
    </g>
</svg>