<?xml version="1.0" encoding="UTF-8"?>
<svg width="31px" height="31px" viewBox="0 0 31 31" version="1.1" xmlns="http://www.w3.org/2000/svg" xmlns:xlink="http://www.w3.org/1999/xlink">
    <!-- Generator: Sketch 50.2 (55047) - http://www.bohemiancoding.com/sketch -->
    <title>Our Locations</title>
    <desc>Created with Sketch.</desc>
    <defs></defs>
    <g id="Wasel-Alami" stroke="none" stroke-width="1" fill="none" fill-rule="evenodd">
        <g id="Wasel-Alami-02" transform="translate(-1178.000000, -682.000000)">
            <g id="Our-Locations" transform="translate(1178.000000, 683.000000)">
                <g>
                    <g id="Group-5-Copy">
                        <path d="M5.06751951,3.45267444 C5.40616141,3.01191416 5.77456275,2.587885 6.17272353,2.18215549" id="Stroke-1" stroke="#6DC653"></path>
                        <path d="M3.68673281,5.64528688 C3.91403336,5.19616105 4.1669886,4.75696931 4.44559852,4.32980307" id="Stroke-3" stroke="#6DC653"></path>
                        <path d="M2.80169733,7.83732419 C2.93869337,7.39238113 3.09877863,6.95371225 3.28041384,6.52184038" id="Stroke-5" stroke="#6DC653"></path>
                        <path d="M4.06606305,19.101651 C2.23072656,15.9384248 1.72943393,12.1943153 2.56167206,8.71424368" id="Stroke-7" stroke="#6DC653"></path>
                        <path d="M4.67356609,9.15233743 C4.79311695,8.70791723 4.93986177,8.26924834 5.11380057,7.83737647" id="Stroke-9" stroke="#6DC653"></path>
                        <path d="M5.30087456,17.0436195 C4.31829995,14.8555035 4.02634959,12.3960298 4.47274118,10.0291001" id="Stroke-11" stroke="#6DC653"></path>
                        <path d="M28.6702956,15.21036 C28.5291948,15.7509841 28.3542298,16.2889939 28.1448876,16.8217753" id="Stroke-13" stroke="#6DC653"></path>
                        <path d="M29.0932388,12.641036 C29.0578354,13.1450608 28.9947248,13.6501313 28.9033941,14.154679" id="Stroke-15" stroke="#6DC653"></path>
                        <path d="M29.0607087,10.2709692 C29.106374,10.7347348 29.1289502,11.2026831 29.1284371,11.6722" id="Stroke-17" stroke="#6DC653"></path>
                        <path d="M23.5497222,0.421728633 C26.4584509,2.59415917 28.3645943,5.83528959 28.942851,9.36869164" id="Stroke-19" stroke="#6DC653"></path>
                        <path d="M26.8321371,9.81232758 C26.8931953,10.2687733 26.9280857,10.7309703 26.935269,11.1978729" id="Stroke-21" stroke="#6DC653"></path>
                        <path d="M23.2089766,2.70479366 C24.9576003,4.32248321 26.1751718,6.46720283 26.6780037,8.82158423" id="Stroke-23" stroke="#6DC653"></path>
                        <polyline id="Fill-25" fill="#E9EAEB" points="12.1937252 25.8267221 16.268203 28.847211 30.8041501 22.502459 26.635263 19.4265483"></polyline>
                        <polyline id="Fill-27" fill="#E9EAEB" points="19.3479972 18.630095 14.6557545 15.8793954 0.1198074 22.2241474 4.88644871 25.0187662"></polyline>
                        <path d="M15.4619787,2.99858156 C10.4218584,2.99858156 6.3355795,7.16253746 6.3355795,12.2984665 C6.3355795,14.680036 7.21502225,16.8514208 8.65989437,18.4962984 L14.6553953,15.8794477 L19.3481511,18.6301473 L21.8818082,18.9072564 C23.5524416,17.2215967 24.588378,14.8834236 24.588378,12.2984665 C24.588378,7.16253746 20.5026121,2.99858156 15.4619787,2.99858156" id="Fill-29" fill="#E9EAEB"></path>
                        <polygon id="Stroke-31" stroke="#3B3E41" points="26.6354683 19.4266529 19.3479972 18.6303564 14.6557545 15.879134 0.1198074 22.2244088 4.88644871 25.0185048 12.1939305 25.8268267 16.2684082 28.8473156 30.8043553 22.5025636"></polygon>
                        <path d="M15.7389468,22.3998241 C15.9077546,17.4777396 20.5332951,16.2584597 20.5332951,12.2356725 C20.5332951,9.16133041 17.8990716,6.71440504 14.8056292,7.11020044 C12.1611438,7.44848265 10.2072826,9.89593086 10.4037975,12.603757 C10.6747111,16.3384553 15.0216416,17.6314567 15.1853186,22.3998241" id="Fill-33" fill="#6DC653"></path>
                        <path d="M15.7389468,22.3998241 C15.9077546,17.4777396 20.5332951,16.2584597 20.5332951,12.2356725 C20.5332951,9.16133041 17.8990716,6.71440504 14.8056292,7.11020044 C12.1611438,7.44848265 10.2072826,9.89593086 10.4037975,12.603757 C10.6747111,16.3384553 15.0216416,17.6314567 15.1853186,22.3998241" id="Stroke-35" stroke="#3B3E41"></path>
                        <path d="M17.0008496,12.2984665 C17.0008496,13.1643016 16.3117647,13.8664856 15.4620814,13.8664856 C14.6118849,13.8664856 13.9233131,13.1643016 13.9233131,12.2984665 C13.9233131,11.4321085 14.6118849,10.7304474 15.4620814,10.7304474 C16.3117647,10.7304474 17.0008496,11.4321085 17.0008496,12.2984665" id="Fill-37" fill="#FFFFFF"></path>
                        <path d="M17.0008496,12.2984665 C17.0008496,13.1643016 16.3117647,13.8664856 15.4620814,13.8664856 C14.6118849,13.8664856 13.9233131,13.1643016 13.9233131,12.2984665 C13.9233131,11.4321085 14.6118849,10.7304474 15.4620814,10.7304474 C16.3117647,10.7304474 17.0008496,11.4321085 17.0008496,12.2984665 Z" id="Stroke-39" stroke="#FFFFFF"></path>
                        <path d="M4.8863974,25.0185048 L13.5120171,21.1530947" id="Stroke-41" stroke="#3B3E41"></path>
                        <path d="M26.5083749,19.3539248 L16.7585667,23.8483202" id="Stroke-43" stroke="#3B3E41"></path>
                    </g>
                    <path d="M17.5020833,12.6181818 C17.5020833,13.7628455 16.5911919,14.6909091 15.4677083,14.6909091 C14.3442247,14.6909091 13.4333333,13.7628455 13.4333333,12.6181818 C13.4333333,11.4735182 14.3442247,10.5454545 15.4677083,10.5454545 C16.5911919,10.5454545 17.5020833,11.4735182 17.5020833,12.6181818 Z" id="Stroke-20" stroke="#3B3E41"></path>
                </g>
            </g>
        </g>
    </g>
</svg>