<?xml version="1.0" encoding="UTF-8"?>
<svg width="53px" height="44px" viewBox="0 0 53 44" version="1.1" xmlns="http://www.w3.org/2000/svg" xmlns:xlink="http://www.w3.org/1999/xlink">
    <!-- Generator: Sketch 50.2 (55047) - http://www.bohemiancoding.com/sketch -->
    <title>My Shipments</title>
    <desc>Created with Sketch.</desc>
    <defs></defs>
    <g id="Dashboard" stroke="none" stroke-width="1" fill="none" fill-rule="evenodd">
        <g id="Dashboard-Empty-state" transform="translate(-694.000000, -476.000000)">
            <g id="My-Shipments" transform="translate(694.000000, 477.000000)">
                <g id="Group-19" transform="translate(0.211502, 0.000000)">
                    <path d="M45.3991112,42.7775444 L6.93333378,42.7775444 C3.23894672,42.7775444 0.243633357,40.0030246 0.243633357,36.5809619 L0.243633357,31.1589521 L52.0888116,31.1589521 L52.0888116,36.5809619 C52.0888116,40.0030246 49.0934983,42.7775444 45.3991112,42.7775444 Z" id="Fill-1" fill="#E9EAEB"></path>
                    <path d="M48.9711197,29.9081467 C48.9941359,29.0115694 49.3566411,25.6276127 47.0024121,25.0828175 C46.7977322,24.7162481 45.9198284,22.9129759 45.1726237,21.3665357 C44.4796715,19.9321676 42.9671779,19.012242 41.300969,19.012242 L34.9969946,19.012242 L34.9969946,33.7995413 L48.6398507,33.7995413 C48.6398507,33.7995413 49.793127,33.0632894 49.793127,32.2429835 C49.793127,31.4320168 49.9986289,30.1673136 48.9711197,29.9081467" id="Fill-3" fill="#6DC653"></path>
                    <path d="M5.94090569,3.16870699 L4.23172399,3.16870699" id="Stroke-5" stroke="#BCC0C4" stroke-width="1.4"></path>
                    <path d="M2.52254229,3.16870699 L0.81336059,3.16870699" id="Stroke-7" stroke="#BCC0C4" stroke-width="1.4"></path>
                    <path d="M31.008904,3.69682483 L22.8066224,3.69682483 C22.4395553,2.91442804 21.5752791,2.26269151 20.5683472,2.26269151 C20.248832,2.26269151 19.9443331,2.29946416 19.6648616,2.40508773 C19.1034157,1.00225029 17.6643458,0 15.9725,0 C13.7951246,0 12.0298655,2.13203125 12.0265285,3.69682483 L7.65008739,3.69682483" id="Stroke-9" stroke="#BCC0C4" stroke-width="1.4"></path>
                    <path d="M51.5190844,7.39364965 L48.1808702,7.39364965 C47.6252038,6.60344841 46.4717113,5.7729469 45.0880262,5.92940675 C44.4851408,4.95587881 43.3729649,4.22494266 42.0854041,4.22494266 C40.1721917,4.22494266 38.6215537,5.81324716 38.605533,7.39364965 L30.4391767,7.39364965" id="Stroke-11" stroke="#BCC0C4" stroke-width="1.4"></path>
                    <path d="M34.9969946,33.7995413 L48.6398507,33.7995413 C48.6398507,33.7995413 49.793127,33.0632894 49.793127,32.2429835 C49.793127,31.4320168 49.9986289,30.1673136 48.9711197,29.9081467 C48.9941359,29.0115694 49.3566411,25.6276127 47.0024121,25.0828175 C46.7977322,24.7162481 45.9198284,22.9129759 45.1726237,21.3665357 C44.4796715,19.9321676 42.9671779,19.012242 41.300969,19.012242 L34.9969946,19.012242" id="Stroke-13" stroke="#28AC58" stroke-width="1.4"></path>
                    <path d="M43.4818362,24.5467056 L42.1056518,21.9618857 C42.0047092,21.7733476 41.789365,21.6528311 41.5521498,21.6528311 L38.415358,21.6528311 L38.415358,25.349656 L42.900575,25.349656 C43.3707993,25.349656 43.6803567,24.9208243 43.4818362,24.5467056" id="Fill-15" fill="#FFFFFF"></path>
                    <path d="M43.4818362,24.5467056 L42.1056518,21.9618857 C42.0047092,21.7733476 41.789365,21.6528311 41.5521498,21.6528311 L38.415358,21.6528311 L38.415358,25.349656 L42.900575,25.349656 C43.3707993,25.349656 43.6803567,24.9208243 43.4818362,24.5467056 Z" id="Stroke-17" stroke="#28AC58" stroke-width="1.4"></path>
                    <polygon id="Fill-19" fill="#FFFFFF" points="7.65008739 33.2714234 34.9969946 33.2714234 34.9969946 11.6185923 7.65008739 11.6185923"></polygon>
                    <polygon id="Stroke-21" stroke="#3B3E41" stroke-width="1.4" points="7.65008739 33.2714234 34.9969946 33.2714234 34.9969946 11.6185923 7.65008739 11.6185923"></polygon>
                    <path d="M18.4749048,33.2714234 C18.4749048,35.0214843 16.9445364,36.4401304 15.0565414,36.4401304 C13.1685465,36.4401304 11.638178,35.0214843 11.638178,33.2714234 C11.638178,31.5213625 13.1685465,30.1027165 15.0565414,30.1027165 C16.9445364,30.1027165 18.4749048,31.5213625 18.4749048,33.2714234" id="Fill-22" fill="#E9EAEB"></path>
                    <path d="M18.4749048,33.2714234 C18.4749048,35.0214843 16.9445364,36.4401304 15.0565414,36.4401304 C13.1685465,36.4401304 11.638178,35.0214843 11.638178,33.2714234 C11.638178,31.5213625 13.1685465,30.1027165 15.0565414,30.1027165 C16.9445364,30.1027165 18.4749048,31.5213625 18.4749048,33.2714234 Z" id="Stroke-23" stroke="#2A5082" stroke-width="1.4"></path>
                    <path d="M44.6823576,33.2714234 C44.6823576,35.0214843 43.1519891,36.4401304 41.2639942,36.4401304 C39.3759992,36.4401304 37.8456308,35.0214843 37.8456308,33.2714234 C37.8456308,31.5213625 39.3759992,30.1027165 41.2639942,30.1027165 C43.1519891,30.1027165 44.6823576,31.5213625 44.6823576,33.2714234" id="Fill-24" fill="#E9EAEB"></path>
                    <path d="M44.6823576,33.2714234 C44.6823576,35.0214843 43.1519891,36.4401304 41.2639942,36.4401304 C39.3759992,36.4401304 37.8456308,35.0214843 37.8456308,33.2714234 C37.8456308,31.5213625 39.3759992,30.1027165 41.2639942,30.1027165 C43.1519891,30.1027165 44.6823576,31.5213625 44.6823576,33.2714234 Z" id="Stroke-25" stroke="#28AC58" stroke-width="1.4"></path>
                    <polygon id="Fill-26" fill="#FFFFFF" points="2.52254229 36.4401304 24.1721772 36.4401304 24.1721772 21.6528311 2.52254229 21.6528311"></polygon>
                    <polygon id="Stroke-27" stroke="#3B3E41" stroke-width="1.4" points="2.52254229 36.4401304 24.1721772 36.4401304 24.1721772 21.6528311 2.52254229 21.6528311"></polygon>
                    <polygon id="Fill-28" fill="#6DC653" points="10.4987236 25.349656 17.3354504 25.349656 17.3354504 21.6528311 10.4987236 21.6528311"></polygon>
                    <polygon id="Stroke-29" stroke="#28AC58" stroke-width="1.4" points="10.4987236 25.349656 17.3354504 25.349656 17.3354504 21.6528311 10.4987236 21.6528311"></polygon>
                    <g id="Group-16" transform="translate(5.371178, 33.271423)" stroke="#28AC58" stroke-width="1.4">
                        <path d="M0.0999521463,0.0589620397 L1.71584518,0.0589620397" id="Stroke-30"></path>
                        <path d="M3.33173821,0.0589620397 L4.94763124,0.0589620397" id="Stroke-31"></path>
                        <path d="M6.56352427,0.0589620397 L8.1794173,0.0589620397" id="Stroke-32"></path>
                    </g>
                </g>
            </g>
        </g>
    </g>
</svg>