<?xml version="1.0" encoding="UTF-8"?>
<svg width="41px" height="35px" viewBox="0 0 41 35" version="1.1" xmlns="http://www.w3.org/2000/svg" xmlns:xlink="http://www.w3.org/1999/xlink">
    <!-- Generator: Sketch 50.2 (55047) - http://www.bohemiancoding.com/sketch -->
    <title>Open Tickets</title>
    <desc>Created with Sketch.</desc>
    <defs></defs>
    <g id="Dashboard" stroke="none" stroke-width="1" fill="none" fill-rule="evenodd">
        <g id="Dashboard-Empty-state" transform="translate(-358.000000, -678.000000)">
            <g id="Open-Tickets" transform="translate(359.000000, 678.000000)">
                <path d="M23.2835821,11.5254237 C23.2835821,17.8905726 18.0712061,23.0508475 11.641791,23.0508475 C5.21237596,23.0508475 0,17.8905726 0,11.5254237 C0,5.16027485 5.21237596,0 11.641791,0 C18.0712061,0 23.2835821,5.16027485 23.2835821,11.5254237" id="Fill-1" fill="#E9EAEB"></path>
                <path d="M33.6366928,6.91525424 C35.355746,6.91525424 36.6716418,8.22352155 36.6716418,9.83773947 L36.6716418,28.8135593 L3.49253731,28.8135593 L3.49253731,9.83773947 C3.49253731,8.16783729 4.53047986,6.91525424 6.24953309,6.91525424 L33.6366928,6.91525424 Z" id="Fill-3" fill="#FFFFFF"></path>
                <path d="M33.6366928,6.91525424 C35.355746,6.91525424 36.6716418,8.22352155 36.6716418,9.83773947 L36.6716418,28.8135593 L3.49253731,28.8135593 L3.49253731,9.83773947 C3.49253731,8.16783729 4.53047986,6.91525424 6.24953309,6.91525424 L33.6366928,6.91525424 Z" id="Stroke-5" stroke="#3B3E41" stroke-width="1.26"></path>
                <path d="M39,29.3898305 L0,29.3898305 L0,29.9609153 C0,31.9778644 1.78456452,34 3.98680645,34 L35.0138226,34 C37.2154355,34 39,31.9778644 39,29.9609153 L39,29.3898305 Z" id="Fill-7" fill="#FFFFFF"></path>
                <path d="M39,29.3898305 L0,29.3898305 L0,29.9609153 C0,31.9778644 1.78456452,34 3.98680645,34 L35.0138226,34 C37.2154355,34 39,31.9778644 39,29.9609153 L39,29.3898305 Z" id="Stroke-9" stroke="#3B3E41" stroke-width="1.26"></path>
                <path d="M16.880597,31.1186441 L23.8656716,31.1186441" id="Stroke-11" stroke="#2A5082" stroke-width="1.26"></path>
                <path d="M34.3432836,16.1355932 L34.3432836,27.0847458" id="Stroke-13" stroke="#3B3E41" stroke-width="1.26"></path>
                <polyline id="Stroke-15" stroke="#3B3E41" stroke-width="1.26" points="5.82089552 26.5084746 5.82089552 9.22033898 17.4626866 9.22033898"></polyline>
                <path d="M39,3.04694059 L39,13.1826025 C39,14.2112607 38.1836194,15.044796 37.1761315,15.044796 L27.1711399,15.044796 L23.4058937,19.9272916 C23.0422332,20.3983653 22.301306,20.1363069 22.301306,19.5364141 L22.301306,15.044796 L21.0748797,15.044796 C20.0488377,15.044796 19.2089552,14.187265 19.2089552,13.1396628 L19.2089552,3.04694059 C19.2089552,2.00060131 20.0395606,1.15254237 21.0643657,1.15254237 L37.1445896,1.15254237 C38.1693946,1.15254237 39,2.00060131 39,3.04694059" id="Fill-17" fill="#6DC653"></path>
                <path d="M39,3.04694059 L39,13.1826025 C39,14.2112607 38.1836194,15.044796 37.1761315,15.044796 L27.1711399,15.044796 L23.4058937,19.9272916 C23.0422332,20.3983653 22.301306,20.1363069 22.301306,19.5364141 L22.301306,15.044796 L21.0748797,15.044796 C20.0488377,15.044796 19.2089552,14.187265 19.2089552,13.1396628 L19.2089552,3.04694059 C19.2089552,2.00060131 20.0395606,1.15254237 21.0643657,1.15254237 L37.1445896,1.15254237 C38.1693946,1.15254237 39,2.00060131 39,3.04694059 Z" id="Stroke-19" stroke="#3B3E41" stroke-width="1.26"></path>
                <path d="M26.1940299,7.49152542 L27.358209,7.49152542" id="Stroke-21" stroke="#2A5082" stroke-width="1.26"></path>
                <path d="M27.9402985,7.49152542 L29.1044776,7.49152542" id="Stroke-23" stroke="#2A5082" stroke-width="1.26"></path>
                <path d="M30.8507463,7.49152542 L32.0149254,7.49152542" id="Stroke-25" stroke="#2A5082" stroke-width="1.26"></path>
                <path d="M14.5522388,20.1694915 C13.1597512,20.1694915 8.73134328,21.4789892 8.73134328,23.1725978 L8.73134328,27.0847458 L20.3731343,27.0847458 L20.3731343,23.1725978 C20.3731343,21.4789892 15.9447264,20.1694915 14.5522388,20.1694915" id="Fill-27" fill="#E9EAEB"></path>
                <path d="M20.3731343,27.0847458 L20.3731343,23.1725978 C20.3731343,21.4789892 15.9447264,20.1694915 14.5522388,20.1694915 C13.1597512,20.1694915 8.73134328,21.4789892 8.73134328,23.1725978 L8.73134328,27.0847458" id="Stroke-29" stroke="#3B3E41" stroke-width="1.26"></path>
                <path d="M16.880597,15.4872881 C16.880597,13.9359181 15.7076866,12.6779661 14.261194,12.6779661 C12.8147015,12.6779661 11.641791,13.9359181 11.641791,15.4872881 L11.641791,17.3601695 C11.641791,18.9115395 12.8147015,20.1694915 14.261194,20.1694915 C15.7076866,20.1694915 16.880597,18.9115395 16.880597,17.3601695 L16.880597,15.4872881 Z" id="Fill-31" fill="#FFFFFF"></path>
                <path d="M16.880597,15.4872881 C16.880597,13.9359181 15.7076866,12.6779661 14.261194,12.6779661 C12.8147015,12.6779661 11.641791,13.9359181 11.641791,15.4872881 L11.641791,17.3601695 C11.641791,18.9115395 12.8147015,20.1694915 14.261194,20.1694915 C15.7076866,20.1694915 16.880597,18.9115395 16.880597,17.3601695 L16.880597,15.4872881 Z" id="Stroke-33" stroke="#3B3E41" stroke-width="1.26"></path>
            </g>
        </g>
    </g>
</svg>