<?xml version="1.0" encoding="UTF-8"?>
<svg width="21px" height="24px" viewBox="0 0 21 24" version="1.1" xmlns="http://www.w3.org/2000/svg" xmlns:xlink="http://www.w3.org/1999/xlink">
    <!-- Generator: Sketch 50.2 (55047) - http://www.bohemiancoding.com/sketch -->
    <title>PDF</title>
    <desc>Created with Sketch.</desc>
    <defs></defs>
    <g id="Customer-Care" stroke="none" stroke-width="1" fill="none" fill-rule="evenodd">
        <g id="Customer-care-Module9" transform="translate(-1072.000000, -492.000000)" fill="#8E8E8E" fill-rule="nonzero">
            <g id="PDF" transform="translate(1072.000000, 492.000000)">
                <g id="Group">
                    <g transform="translate(0.000000, 11.250000)" id="Shape">
                        <path d="M5.0625,3.3015 L4.06125,3.3015 L4.06125,4.79475 L5.0625,4.79475 C5.4645,4.79475 5.7825,4.44075 5.7825,4.06875 C5.78175,3.6495 5.4645,3.3015 5.0625,3.3015 Z"></path>
                        <path d="M9.09225,3.3315 L8.097,3.3315 L8.097,6.018 L9.09225,6.018 C10.7115,6.018 10.78275,3.3315 9.09225,3.3315 Z"></path>
                        <path d="M17.25,0 L0.75,0 C0.3375,0 0,0.3375 0,0.75 L0,8.25 C0,8.6625 0.3375,9 0.75,9 L17.25,9 C17.66325,9 18,8.6625 18,8.25 L18,0.75 C18,0.3375 17.66325,0 17.25,0 Z M5.0625,5.54475 L4.06125,5.54475 L4.06125,6.33675 C4.06125,6.60075 3.89325,6.75 3.67725,6.75 C3.47925,6.75 3.27,6.60075 3.27,6.336 L3.27,2.96025 C3.27,2.76225 3.426,2.5455 3.67725,2.5455 L5.0625,2.5455 C5.8425,2.5455 6.5445,3.0675 6.5445,4.06875 C6.54375,5.01675 5.8425,5.54475 5.0625,5.54475 Z M9.14625,6.75 L7.719,6.75 C7.521,6.75 7.305,6.64125 7.305,6.378 L7.305,2.97225 C7.305,2.75625 7.521,2.60025 7.719,2.60025 L9.09225,2.60025 C11.83275,2.60025 11.77275,6.75 9.14625,6.75 Z M14.49,3.3795 L12.744,3.3795 L12.744,4.33275 L14.27325,4.33275 C14.49,4.33275 14.70525,4.54875 14.70525,4.75875 C14.70525,4.95675 14.49,5.118 14.27325,5.118 L12.744,5.118 L12.744,6.37725 C12.744,6.58725 12.59475,6.74925 12.38475,6.74925 C12.12075,6.74925 11.95875,6.58725 11.95875,6.37725 L11.95875,2.9715 C11.95875,2.7555 12.1215,2.5995 12.38475,2.5995 L14.49,2.5995 C14.754,2.5995 14.90925,2.7555 14.90925,2.9715 C14.90925,3.16425 14.754,3.3795 14.49,3.3795 Z"></path>
                    </g>
                    <path d="M20.25,5.6895 L15.3105,0.75 C14.877,0.315 14.115,0 13.5,0 L5.25,0 C4.0095,0 3,1.0095 3,2.25 L3,9.75 C3,10.16475 3.33525,10.5 3.75,10.5 C4.16475,10.5 4.5,10.16475 4.5,9.75 L4.5,2.25 C4.5,1.83675 4.836,1.5 5.25,1.5 L12,1.5 C12.82875,1.5 13.5,2.172 13.5,3 L13.5,5.8125 C13.5,6.741 14.2605,7.5 15.1875,7.5 L18,7.5 C18.82875,7.5 19.5,8.172 19.5,9 L19.5,21.75 C19.5,22.16325 19.16475,22.5 18.75,22.5 L5.25,22.5 C4.836,22.5 4.5,22.16325 4.5,21.75 C4.5,21.33525 4.16475,21 3.75,21 C3.33525,21 3,21.33525 3,21.75 C3,22.9905 4.0095,24 5.25,24 L18.75,24 C19.9905,24 21,22.9905 21,21.75 L21,7.5 C21,6.88575 20.685,6.12375 20.25,5.6895 Z" id="Shape"></path>
                </g>
            </g>
        </g>
    </g>
</svg>