<?xml version="1.0" encoding="UTF-8"?>
<svg width="32px" height="27px" viewBox="0 0 32 27" version="1.1" xmlns="http://www.w3.org/2000/svg" xmlns:xlink="http://www.w3.org/1999/xlink">
    <!-- Generator: Sketch 50.2 (55047) - http://www.bohemiancoding.com/sketch -->
    <title>Prepare shipment</title>
    <desc>Created with Sketch.</desc>
    <defs></defs>
    <g id="Dashboard" stroke="none" stroke-width="1" fill="none" fill-rule="evenodd">
        <g id="Dashboard-Empty-state" transform="translate(-1177.000000, -614.000000)">
            <g id="Prepare-shipment" transform="translate(1178.000000, 614.000000)">
                <g id="Group-21">
                    <g>
                        <g transform="translate(0.262712, 0.000000)">
                            <g id="Group-17">
                                <path d="M30.2880032,16.745899 C30.2880032,22.2950115 25.5418731,26.7934384 19.6872021,26.7934384 C13.8325311,26.7934384 9.08640095,22.2950115 9.08640095,16.745899 C9.08640095,11.1967865 13.8325311,6.6983596 19.6872021,6.6983596 C25.5418731,6.6983596 30.2880032,11.1967865 30.2880032,16.745899" id="Fill-1" fill="#E9EAEB"></path>
                                <polygon id="Fill-3" fill="#FFFFFF" points="12.0869325 26.1554994 24.2304025 20.1179133 24.2304025 7.43787476 12.0869325 1.59484752 0 7.43787476 0 20.1179133"></polygon>
                                <polygon id="Fill-5" fill="#E9EAEB" points="0 7.33629861 12.1152013 13.303762 12.1152013 25.8365299 0 19.8695425"></polygon>
                                <g id="Group-4" transform="translate(20.192002, 0.000000)" stroke="#6DC653">
                                    <path d="M3.02880032,2.55175604 L3.02880032,0" id="Stroke-7"></path>
                                    <path d="M4.71146716,2.55175604 L6.05760064,0.637939009" id="Stroke-9"></path>
                                    <path d="M6.05760064,4.14660356 L8.07680085,2.87072554" id="Stroke-11"></path>
                                    <path d="M6.73066737,5.74145109 L9.42293432,5.74145109" id="Stroke-13"></path>
                                    <path d="M1.34613347,2.55175604 L0,0.637939009" id="Stroke-15"></path>
                                </g>
                                <polygon id="Stroke-17" stroke="#3B3E41" points="12.0869325 26.1554994 24.2304025 20.1179133 24.2304025 7.43787476 12.0869325 1.59484752 0 7.43787476 0 20.1179133"></polygon>
                                <polyline id="Stroke-19" stroke="#3B3E41" points="0 7.33629861 12.0869983 13.3967192 24.2304025 7.33629861"></polyline>
                                <path d="M12.1152013,13.3967192 L12.1152013,25.8365299" id="Stroke-21" stroke="#3B3E41"></path>
                                <polygon id="Fill-23" fill="#6DC653" points="16.6118917 3.50866455 4.71146716 9.57770594 4.71146716 11.9476846 5.23056187 12.0045641 6.11016733 12.8989941 7.03770492 13.0734245 7.77096443 13.7156887 7.77096443 10.9996931 19.8554687 5.0259249"></polygon>
                                <polygon id="Stroke-25" stroke="#28AC58" points="16.6118917 3.50866455 4.71146716 9.57770594 4.71146716 11.9476846 5.23056187 12.0045641 6.11016733 12.8989941 7.03770492 13.0734245 7.77096443 13.7156887 7.77096443 10.9996931 19.8554687 5.0259249"></polygon>
                                <path d="M21.874669,17.8622923 L15.8170683,21.0519873" id="Stroke-27" stroke="#28AC58"></path>
                                <path d="M20.8650689,12.1208412 L20.8650689,16.9053838" id="Stroke-29" stroke="#28AC58"></path>
                                <polyline id="Stroke-31" stroke="#28AC58" points="19.5189354 14.0346582 20.6965655 12.1208412 21.874669 12.9129436"></polyline>
                                <path d="M16.8266684,14.0346582 L16.8266684,18.8192008" id="Stroke-33" stroke="#28AC58"></path>
                                <polyline id="Stroke-35" stroke="#28AC58" points="15.480535 15.9484752 16.6581651 14.0346582 17.8362685 14.8267606"></polyline>
                            </g>
                        </g>
                    </g>
                </g>
            </g>
        </g>
    </g>
</svg>