<?xml version="1.0" encoding="UTF-8"?>
<svg width="59px" height="52px" viewBox="0 0 59 52" version="1.1" xmlns="http://www.w3.org/2000/svg" xmlns:xlink="http://www.w3.org/1999/xlink">
    <!-- Generator: Sketch 50.2 (55047) - http://www.bohemiancoding.com/sketch -->
    <title>Success</title>
    <desc>Created with Sketch.</desc>
    <defs></defs>
    <g id="Customer-Care" stroke="none" stroke-width="1" fill="none" fill-rule="evenodd">
        <g id="Customer-care-Module6" transform="translate(-691.000000, -150.000000)">
            <g id="Success" transform="translate(692.000000, 150.000000)">
                <path d="M50.9092727,44.2521825 C50.3465455,45.0321825 49.7410909,45.7902877 49.0910909,46.5237614" id="Stroke-1" stroke="#BCC0C4" stroke-width="2"></path>
                <path d="M53.6365455,39.6089474 C53.2074545,40.527614 52.7265455,41.4280351 52.1956364,42.3065614" id="Stroke-3" stroke="#BCC0C4" stroke-width="2"></path>
                <path d="M55.328,35.0086807 C55.0743636,35.9328211 54.7752727,36.846014 54.4289091,37.7455228" id="Stroke-5" stroke="#BCC0C4" stroke-width="2"></path>
                <path d="M49.5007273,8.55080702 C55.4261818,15.5370526 57.5152727,24.6790175 55.7652727,33.1842105" id="Stroke-7" stroke="#BCC0C4" stroke-width="2"></path>
                <path d="M28.4291261,8.55706688 C17.9412333,8.55706688 9.40867888,17.1195601 9.40867888,27.6442525 C9.40867888,38.1691003 17.9412333,46.7315935 28.4291261,46.7315935 C38.9170189,46.7315935 47.4495733,38.1691003 47.4495733,27.6442525 C47.4495733,17.1195601 38.9170189,8.55706688 28.4291261,8.55706688" id="Fill-1" stroke="#3B3E41" stroke-width="2" fill="#6DC653"></path>
                <path d="M25.3063772,36.1275428 C24.7412263,36.1275428 24.1762304,35.9111958 23.7450492,35.4785017 L17.4995824,29.211121 C16.6372201,28.3458883 16.6372201,26.942741 17.4995824,26.0775083 C18.3619447,25.2121202 19.7598761,25.2121202 20.6222384,26.0775083 L25.3063772,30.7779273 L36.2359828,19.8101276 C37.0983451,18.9447395 38.4962765,18.9447395 39.3586388,19.8101276 C40.2210011,20.6753603 40.2210011,22.0783521 39.3586388,22.9437403 L26.8677052,35.4785017 C26.436524,35.9111958 25.8715281,36.1275428 25.3063772,36.1275428" id="Fill-4" fill="#FFFFFF"></path>
                <path d="M6.11781818,9.46418246 C6.83327273,8.54734035 7.61145455,7.66425263 8.45327273,6.82039298" id="Stroke-9" stroke="#BCC0C4" stroke-width="2"></path>
                <path d="M3.20036364,14.0265895 C3.68036364,13.0915018 4.21490909,12.1783088 4.804,11.2897474" id="Stroke-11" stroke="#BCC0C4" stroke-width="2"></path>
                <path d="M1.33027273,18.5878105 C1.62027273,17.6627579 1.95754545,16.7486526 2.34209091,15.8509684" id="Stroke-13" stroke="#BCC0C4" stroke-width="2"></path>
                <path d="M6.047,45.0436772 C0.527909091,37.9160281 -1.213,28.7968702 0.823363636,20.4120982" id="Stroke-15" stroke="#BCC0C4" stroke-width="2"></path>
                <path d="M43.6363636,0 L43.6363636,5.47368421" id="Stroke-35" stroke="#BCC0C4" stroke-width="2"></path>
                <path d="M46.3636364,2.73684211 L40.9090909,2.73684211" id="Stroke-37" stroke="#BCC0C4" stroke-width="2"></path>
                <path d="M10,46.5263158 L10,52" id="Stroke-39" stroke="#BCC0C4" stroke-width="2"></path>
                <path d="M12.7272727,49.2631579 L7.27272727,49.2631579" id="Stroke-41" stroke="#BCC0C4" stroke-width="2"></path>
            </g>
        </g>
    </g>
</svg>