<?xml version="1.0" encoding="UTF-8"?>
<svg width="47px" height="38px" viewBox="0 0 47 38" version="1.1" xmlns="http://www.w3.org/2000/svg" xmlns:xlink="http://www.w3.org/1999/xlink">
    <!-- Generator: Sketch 50.2 (55047) - http://www.bohemiancoding.com/sketch -->
    <title>Track Shipment</title>
    <desc>Created with Sketch.</desc>
    <defs></defs>
    <g id="Dashboard" stroke="none" stroke-width="1" fill="none" fill-rule="evenodd">
        <g transform="translate(-1163.000000, -164.000000)" id="Track-Shipment">
            <g transform="translate(1164.000000, 165.000000)">
                <g id="Group-20" transform="translate(0.538716, 0.000000)">
                    <g id="Group-12">
                        <path d="M39.4538458,18.880435 C39.4538458,26.2406481 33.1640564,32.2078008 25.4058855,32.2078008 C17.6477146,32.2078008 11.3579253,26.2406481 11.3579253,18.880435 C11.3579253,11.5202218 17.6477146,5.55306911 25.4058855,5.55306911 C33.1640564,5.55306911 39.4538458,11.5202218 39.4538458,18.880435 Z" id="Fill-1" fill="#E9EAEB"></path>
                        <polygon id="Fill-3" fill="#FFFFFF" points="0 0 0 22.2122764 30.4870626 22.2122764 30.4870626 9.71787094 30.4870626 0"></polygon>
                        <polyline id="Stroke-5" stroke="#3B3E41" stroke-width="1.4" points="30.4870626 9.71787094 30.4870626 0 0 0 0 22.2122764 16.3589117 22.2122764"></polyline>
                        <polygon id="Fill-7" fill="#6DC653" points="11.3579253 4.44245529 19.7269229 4.44245529 19.7269229 0 11.3579253 0"></polygon>
                        <polygon id="Stroke-9" stroke="#28AC58" stroke-width="1.4" points="11.3579253 4.44245529 19.7269229 4.44245529 19.7269229 0 11.3579253 0"></polygon>
                        <path d="M2.39114217,19.9910488 L3.58671325,19.9910488" id="Stroke-10" stroke="#28AC58" stroke-width="1.4"></path>
                        <path d="M5.38006988,19.9910488 L6.57564096,19.9910488" id="Stroke-11" stroke="#28AC58" stroke-width="1.4"></path>
                        <path d="M8.36899759,19.9910488 L9.56456867,19.9910488" id="Stroke-12" stroke="#28AC58" stroke-width="1.4"></path>
                        <path d="M31.0848482,23.8781972 L35.8671325,27.7653455" id="Stroke-13" stroke="#3B3E41" stroke-width="1.4"></path>
                        <path d="M33.4759903,18.3251281 C33.4759903,22.6189233 29.8630682,26.0994248 25.4062518,26.0994248 C20.9494354,26.0994248 17.3357807,22.6189233 17.3357807,18.3251281 C17.3357807,14.0313328 20.9494354,10.5508313 25.4062518,10.5508313 C29.8630682,10.5508313 33.4759903,14.0313328 33.4759903,18.3251281" id="Fill-14" fill="#FFFFFF"></path>
                        <path d="M33.4759903,18.3251281 C33.4759903,22.6189233 29.8630682,26.0994248 25.4062518,26.0994248 C20.9494354,26.0994248 17.3357807,22.6189233 17.3357807,18.3251281 C17.3357807,14.0313328 20.9494354,10.5508313 25.4062518,10.5508313 C29.8630682,10.5508313 33.4759903,14.0313328 33.4759903,18.3251281 Z" id="Stroke-15" stroke="#28AC58" stroke-width="1.4"></path>
                        <path d="M38.8804229,30.5450182 L38.8804229,30.5450182 C38.1164609,31.2811273 36.8780915,31.2811273 36.1134073,30.545714 L32.8539323,27.6527637 C32.0892482,26.9166546 32.0892482,25.7220429 32.8539323,24.9859339 C33.6178944,24.2498248 34.8562638,24.2491291 35.6209479,24.9852381 L38.8797008,27.8774926 C39.645107,28.6142974 39.645107,29.8082134 38.8804229,30.5450182" id="Fill-16" fill="#6DC653"></path>
                        <path d="M38.8804229,30.5450182 L38.8804229,30.5450182 C38.1164609,31.2811273 36.8780915,31.2811273 36.1134073,30.545714 L32.8539323,27.6527637 C32.0892482,26.9166546 32.0892482,25.7220429 32.8539323,24.9859339 C33.6178944,24.2498248 34.8562638,24.2491291 35.6209479,24.9852381 L38.8797008,27.8774926 C39.645107,28.6142974 39.645107,29.8082134 38.8804229,30.5450182 Z" id="Stroke-17" stroke="#28AC58" stroke-width="1.4"></path>
                        <path d="M22.118065,15.5485935 L22.118065,21.1016626" id="Stroke-18" stroke="#3B3E41" stroke-width="1.4"></path>
                        <path d="M23.9114217,15.5485935 L23.9114217,21.1016626" id="Stroke-19" stroke="#3B3E41" stroke-width="1.4"></path>
                        <path d="M26.9003494,15.5485935 L26.9003494,21.1016626" id="Stroke-20" stroke="#3B3E41" stroke-width="1.4"></path>
                        <path d="M29.2914915,15.5485935 L29.2914915,21.1016626" id="Stroke-21" stroke="#3B3E41" stroke-width="1.4"></path>
                        <path d="M34.6715614,3.33184146 L34.6715614,3.33184146 C43.1871711,7.59771247 46.5434568,17.0744433 42.5823736,24.988811" id="Stroke-22" stroke="#3B3E41" stroke-width="1.4"></path>
                        <path d="M9.56456867,26.0994248 C11.141934,29.077619 13.6258057,31.6475295 16.8873141,33.3830904 C22.0126468,36.1109086 27.9141434,36.164967 32.8782048,34.0303693" id="Stroke-23" stroke="#3B3E41" stroke-width="1.4"></path>
                    </g>
                </g>
            </g>
        </g>
    </g>
</svg>